testrun/qrun.log
QuestaSim-64 qrun 2024.1 Utility 2024.02 Feb  1 2024
Start time: 15:32:02 on Apr 15,2025
qrun tb_top.sv 
QuestaSim-64 vlog 2024.1 Compiler 2024.02 Feb  1 2024
Start time: 15:32:02 on Apr 15,2025
vlog tb_top.sv -work ./work -statslog qrun.out/stats_log -writesessionid "+qrun.out/top_dus" -csession=incr -csessionid=7 
** Note: (vlog-2286) tb_top.sv(2): Using implicit +incdir+C:/questasim64_2024.1/uvm-1.1d/../verilog_src/uvm-1.1d/src from import uvm_pkg
-- Compiling package tb_top_sv_unit
-- Importing package mtiUvm.uvm_pkg (uvm-1.1d Built-in)
-- Importing package mem_ctrl_pkg
-- Compiling package mem_ctrl_pkg
-- Compiling module mem_ctrl
-- Compiling interface mem_ctrl_if
-- Compiling module tb_top

Top level modules:
	tb_top
End time: 15:32:03 on Apr 15,2025, Elapsed time: 0:00:01
Errors: 0, Warnings: 0
QuestaSim-64 vopt 2024.1 Compiler 2024.02 Feb  1 2024
Start time: 15:32:03 on Apr 15,2025
vopt -findtoplevels D:/UVM/UVM_MAIN_PROJECT/testrun/work+7+ -work ./work -statslog qrun.out/stats_log -csession=incr -o qrun_opt_1 -csessionid=30 

Top level modules:
	tb_top

Analyzing design...
-- Loading module tb_top
-- Loading package mtiUvm.questa_uvm_pkg
-- Loading interface mem_ctrl_if
-- Loading module mem_ctrl
Incremental compilation check found 2 design-units (out of 8) may be reused.
Optimizing 6 design-units (inlining 2/3 module instances):
-- Optimizing package mem_ctrl_pkg(fast)
-- Optimizing package tb_top_sv_unit(fast)
-- Inlining interface mem_ctrl_if(fast__2)
-- Inlining module mem_ctrl(fast)
-- Optimizing module tb_top(fast)
-- Optimizing interface mem_ctrl_if(fast)
Optimized design name is qrun_opt_1
End time: 15:32:04 on Apr 15,2025, Elapsed time: 0:00:01
Errors: 0, Warnings: 0
# vsim -lib ./work -c -do "run -all; quit -f" -statslog qrun.out/stats_log qrun_opt_1 -appendlog -l qrun.log -csession=incr -csessionid=9 
# Start time: 15:32:05 on Apr 15,2025
# //  Questa Sim-64
# //  Version 2024.1 win64 Feb  1 2024
# //
# // Unpublished work. Copyright 2024 Siemens
# //
# // This material contains trade secrets or otherwise confidential information
# // owned by Siemens Industry Software Inc. or its affiliates (collectively,
# // "SISW"), or its licensors. Access to and use of this information is strictly
# // limited as set forth in the Customer's applicable agreements with SISW.
# //
# // This material may not be copied, distributed, or otherwise disclosed outside
# // of the Customer's facilities without the express written permission of SISW,
# // and may not be used in any way not expressly authorized by SISW.
# //
# Loading sv_std.std
# Loading work.mem_ctrl_if(fast)
# Loading mtiUvm.uvm_pkg(fast)
# Loading work.mem_ctrl_pkg(fast)
# Loading work.tb_top_sv_unit(fast)
# Loading mtiUvm.questa_uvm_pkg(fast)
# Loading work.tb_top(fast)
# Loading C:/questasim64_2024.1/uvm-1.1d\win64\uvm_dpi.dll
# run -all
# ----------------------------------------------------------------
# UVM-1.1d
# (C) 2007-2013 Mentor Graphics Corporation
# (C) 2007-2013 Cadence Design Systems, Inc.
# (C) 2006-2013 Synopsys, Inc.
# (C) 2011-2013 Cypress Semiconductor Corp.
# ----------------------------------------------------------------
# 
#   ***********       IMPORTANT RELEASE NOTES         ************
# 
#   You are using a version of the UVM library that has been compiled
#   with `UVM_NO_DEPRECATED undefined.
#   See http://www.eda.org/svdb/view.php?id=3313 for more details.
# 
#   You are using a version of the UVM library that has been compiled
#   with `UVM_OBJECT_MUST_HAVE_CONSTRUCTOR undefined.
#   See http://www.eda.org/svdb/view.php?id=3770 for more details.
# 
#       (Specify +UVM_NO_RELNOTES to turn off this notice)
# 
# UVM_INFO verilog_src/questa_uvm_pkg-1.2/src/questa_uvm_pkg.sv(277) @ 0: reporter [Questa UVM] QUESTA_UVM-1.2.3
# UVM_INFO verilog_src/questa_uvm_pkg-1.2/src/questa_uvm_pkg.sv(278) @ 0: reporter [Questa UVM]  questa_uvm::init(+struct)
# UVM_INFO @ 0: reporter [RNTST] Running test test...
# UVM_INFO wr_sequence.sv(22) @ 0: uvm_test_top.e.a.seqr@@wr_seq [wr_sequence] rst_n = 1 | cmd_n = 0 | RDnWR = 0 | Addr_in = c7e0 | Data_in_vld = 1 | Data_in = 18573867
# UVM_INFO driver.sv(43) @ 0: uvm_test_top.e.a.d [DRV] DATA SENT FROM DRIVER CLASS : rst_n = 1 | cmd_n = 0 | RDnWR = 0 | Addr_in = c7e0 | Data_in_vld = 1 | Data_in = 18573867
# UVM_INFO monitor.sv(55) @ 50: uvm_test_top.e.a.m [MON_WRITE] DATA SENT rst_n:1 cmd_n:0 RDnWR:0 Addr_in:c7e0 Data_in_vld:1 Data_in:18573867 
# UVM_INFO scoreboard.sv(62) @ 90: uvm_test_top.e.s [SBD] WRITE: Addr = c7e0, Data = 18573867
# UVM_INFO wr_sequence.sv(22) @ 90: uvm_test_top.e.a.seqr@@wr_seq [wr_sequence] rst_n = 1 | cmd_n = 0 | RDnWR = 0 | Addr_in = a06a | Data_in_vld = 1 | Data_in = 9633abb8
# UVM_INFO driver.sv(43) @ 90: uvm_test_top.e.a.d [DRV] DATA SENT FROM DRIVER CLASS : rst_n = 1 | cmd_n = 0 | RDnWR = 0 | Addr_in = a06a | Data_in_vld = 1 | Data_in = 9633abb8
# UVM_INFO monitor.sv(55) @ 140: uvm_test_top.e.a.m [MON_WRITE] DATA SENT rst_n:1 cmd_n:0 RDnWR:0 Addr_in:a06a Data_in_vld:1 Data_in:9633abb8 
# UVM_INFO scoreboard.sv(62) @ 180: uvm_test_top.e.s [SBD] WRITE: Addr = a06a, Data = 9633abb8
# UVM_INFO wr_sequence.sv(22) @ 180: uvm_test_top.e.a.seqr@@wr_seq [wr_sequence] rst_n = 1 | cmd_n = 0 | RDnWR = 0 | Addr_in = 29ca | Data_in_vld = 1 | Data_in = c8223e8c
# UVM_INFO driver.sv(43) @ 180: uvm_test_top.e.a.d [DRV] DATA SENT FROM DRIVER CLASS : rst_n = 1 | cmd_n = 0 | RDnWR = 0 | Addr_in = 29ca | Data_in_vld = 1 | Data_in = c8223e8c
# UVM_INFO monitor.sv(55) @ 230: uvm_test_top.e.a.m [MON_WRITE] DATA SENT rst_n:1 cmd_n:0 RDnWR:0 Addr_in:29ca Data_in_vld:1 Data_in:c8223e8c 
# UVM_INFO scoreboard.sv(62) @ 270: uvm_test_top.e.s [SBD] WRITE: Addr = 29ca, Data = c8223e8c
# UVM_INFO wr_sequence.sv(22) @ 270: uvm_test_top.e.a.seqr@@wr_seq [wr_sequence] rst_n = 1 | cmd_n = 0 | RDnWR = 0 | Addr_in = d67f | Data_in_vld = 1 | Data_in = 50d14e4d
# UVM_INFO driver.sv(43) @ 270: uvm_test_top.e.a.d [DRV] DATA SENT FROM DRIVER CLASS : rst_n = 1 | cmd_n = 0 | RDnWR = 0 | Addr_in = d67f | Data_in_vld = 1 | Data_in = 50d14e4d
# UVM_INFO monitor.sv(55) @ 320: uvm_test_top.e.a.m [MON_WRITE] DATA SENT rst_n:1 cmd_n:0 RDnWR:0 Addr_in:d67f Data_in_vld:1 Data_in:50d14e4d 
# UVM_INFO scoreboard.sv(62) @ 360: uvm_test_top.e.s [SBD] WRITE: Addr = d67f, Data = 50d14e4d
# UVM_INFO wr_sequence.sv(22) @ 360: uvm_test_top.e.a.seqr@@wr_seq [wr_sequence] rst_n = 1 | cmd_n = 0 | RDnWR = 0 | Addr_in = c5ea | Data_in_vld = 1 | Data_in = 216c33a5
# UVM_INFO driver.sv(43) @ 360: uvm_test_top.e.a.d [DRV] DATA SENT FROM DRIVER CLASS : rst_n = 1 | cmd_n = 0 | RDnWR = 0 | Addr_in = c5ea | Data_in_vld = 1 | Data_in = 216c33a5
# UVM_INFO monitor.sv(55) @ 410: uvm_test_top.e.a.m [MON_WRITE] DATA SENT rst_n:1 cmd_n:0 RDnWR:0 Addr_in:c5ea Data_in_vld:1 Data_in:216c33a5 
# UVM_INFO scoreboard.sv(62) @ 450: uvm_test_top.e.s [SBD] WRITE: Addr = c5ea, Data = 216c33a5
# UVM_INFO wr_sequence.sv(22) @ 450: uvm_test_top.e.a.seqr@@wr_seq [wr_sequence] rst_n = 1 | cmd_n = 0 | RDnWR = 0 | Addr_in = e0b | Data_in_vld = 1 | Data_in = 396b8793
# UVM_INFO driver.sv(43) @ 450: uvm_test_top.e.a.d [DRV] DATA SENT FROM DRIVER CLASS : rst_n = 1 | cmd_n = 0 | RDnWR = 0 | Addr_in = e0b | Data_in_vld = 1 | Data_in = 396b8793
# UVM_INFO monitor.sv(55) @ 500: uvm_test_top.e.a.m [MON_WRITE] DATA SENT rst_n:1 cmd_n:0 RDnWR:0 Addr_in:e0b Data_in_vld:1 Data_in:396b8793 
# UVM_INFO scoreboard.sv(62) @ 540: uvm_test_top.e.s [SBD] WRITE: Addr = e0b, Data = 396b8793
# UVM_INFO wr_sequence.sv(22) @ 540: uvm_test_top.e.a.seqr@@wr_seq [wr_sequence] rst_n = 1 | cmd_n = 0 | RDnWR = 0 | Addr_in = a992 | Data_in_vld = 1 | Data_in = 5a3efeb6
# UVM_INFO driver.sv(43) @ 540: uvm_test_top.e.a.d [DRV] DATA SENT FROM DRIVER CLASS : rst_n = 1 | cmd_n = 0 | RDnWR = 0 | Addr_in = a992 | Data_in_vld = 1 | Data_in = 5a3efeb6
# UVM_INFO monitor.sv(55) @ 590: uvm_test_top.e.a.m [MON_WRITE] DATA SENT rst_n:1 cmd_n:0 RDnWR:0 Addr_in:a992 Data_in_vld:1 Data_in:5a3efeb6 
# UVM_INFO scoreboard.sv(62) @ 630: uvm_test_top.e.s [SBD] WRITE: Addr = a992, Data = 5a3efeb6
# UVM_INFO wr_sequence.sv(22) @ 630: uvm_test_top.e.a.seqr@@wr_seq [wr_sequence] rst_n = 1 | cmd_n = 0 | RDnWR = 0 | Addr_in = 6a8e | Data_in_vld = 1 | Data_in = 2c48058b
# UVM_INFO driver.sv(43) @ 630: uvm_test_top.e.a.d [DRV] DATA SENT FROM DRIVER CLASS : rst_n = 1 | cmd_n = 0 | RDnWR = 0 | Addr_in = 6a8e | Data_in_vld = 1 | Data_in = 2c48058b
# UVM_INFO monitor.sv(55) @ 680: uvm_test_top.e.a.m [MON_WRITE] DATA SENT rst_n:1 cmd_n:0 RDnWR:0 Addr_in:6a8e Data_in_vld:1 Data_in:2c48058b 
# UVM_INFO scoreboard.sv(62) @ 720: uvm_test_top.e.s [SBD] WRITE: Addr = 6a8e, Data = 2c48058b
# UVM_INFO wr_sequence.sv(22) @ 720: uvm_test_top.e.a.seqr@@wr_seq [wr_sequence] rst_n = 1 | cmd_n = 0 | RDnWR = 0 | Addr_in = 66be | Data_in_vld = 1 | Data_in = 539da103
# UVM_INFO driver.sv(43) @ 720: uvm_test_top.e.a.d [DRV] DATA SENT FROM DRIVER CLASS : rst_n = 1 | cmd_n = 0 | RDnWR = 0 | Addr_in = 66be | Data_in_vld = 1 | Data_in = 539da103
# UVM_INFO monitor.sv(55) @ 770: uvm_test_top.e.a.m [MON_WRITE] DATA SENT rst_n:1 cmd_n:0 RDnWR:0 Addr_in:66be Data_in_vld:1 Data_in:539da103 
# UVM_INFO scoreboard.sv(62) @ 810: uvm_test_top.e.s [SBD] WRITE: Addr = 66be, Data = 539da103
# UVM_INFO wr_sequence.sv(22) @ 810: uvm_test_top.e.a.seqr@@wr_seq [wr_sequence] rst_n = 1 | cmd_n = 0 | RDnWR = 0 | Addr_in = 9486 | Data_in_vld = 1 | Data_in = 66e854a9
# UVM_INFO driver.sv(43) @ 810: uvm_test_top.e.a.d [DRV] DATA SENT FROM DRIVER CLASS : rst_n = 1 | cmd_n = 0 | RDnWR = 0 | Addr_in = 9486 | Data_in_vld = 1 | Data_in = 66e854a9
# UVM_INFO monitor.sv(55) @ 860: uvm_test_top.e.a.m [MON_WRITE] DATA SENT rst_n:1 cmd_n:0 RDnWR:0 Addr_in:9486 Data_in_vld:1 Data_in:66e854a9 
# UVM_INFO scoreboard.sv(62) @ 900: uvm_test_top.e.s [SBD] WRITE: Addr = 9486, Data = 66e854a9
# UVM_INFO rd_sequence.sv(26) @ 900: uvm_test_top.e.a.seqr@@rd_seq [RD_SEQ] rst_n = 1 | cmd_n = 0 | RDnWR = 1 | Addr_in = 6a8e | Data_in_vld = 0 | Data_in = 0
# UVM_INFO driver.sv(43) @ 900: uvm_test_top.e.a.d [DRV] DATA SENT FROM DRIVER CLASS : rst_n = 1 | cmd_n = 0 | RDnWR = 1 | Addr_in = 6a8e | Data_in_vld = 0 | Data_in = 0
# UVM_INFO monitor.sv(49) @ 1000: uvm_test_top.e.a.m [MON_READ] DATA SENT rst_n:1 cmd_n:0 RDnWR:1 Addr_in:6a8e Data_in_vld:0 Data_in:0 
# UVM_INFO scoreboard.sv(94) @ 1070: uvm_test_top.e.s [SBD_READ_RA] RA Success
# UVM_INFO scoreboard.sv(103) @ 1070: uvm_test_top.e.s [SBD_READ_CA] CA Success
# UVM_INFO scoreboard.sv(113) @ 1070: uvm_test_top.e.s [SBD_READ_CN] Csn Success
# UVM_INFO scoreboard.sv(123) @ 1070: uvm_test_top.e.s [SBD_READ_DO] Data out success expected = 2c48058b | got = 2c48058b
# UVM_INFO rd_sequence.sv(26) @ 1070: uvm_test_top.e.a.seqr@@rd_seq [RD_SEQ] rst_n = 1 | cmd_n = 0 | RDnWR = 1 | Addr_in = 66be | Data_in_vld = 0 | Data_in = 0
# UVM_INFO driver.sv(43) @ 1070: uvm_test_top.e.a.d [DRV] DATA SENT FROM DRIVER CLASS : rst_n = 1 | cmd_n = 0 | RDnWR = 1 | Addr_in = 66be | Data_in_vld = 0 | Data_in = 0
# UVM_INFO monitor.sv(49) @ 1120: uvm_test_top.e.a.m [MON_READ] DATA SENT rst_n:1 cmd_n:0 RDnWR:1 Addr_in:66be Data_in_vld:0 Data_in:0 
# UVM_INFO scoreboard.sv(94) @ 1190: uvm_test_top.e.s [SBD_READ_RA] RA Success
# UVM_INFO scoreboard.sv(103) @ 1190: uvm_test_top.e.s [SBD_READ_CA] CA Success
# UVM_INFO scoreboard.sv(113) @ 1190: uvm_test_top.e.s [SBD_READ_CN] Csn Success
# UVM_INFO scoreboard.sv(123) @ 1190: uvm_test_top.e.s [SBD_READ_DO] Data out success expected = 539da103 | got = 539da103
# UVM_INFO rd_sequence.sv(26) @ 1190: uvm_test_top.e.a.seqr@@rd_seq [RD_SEQ] rst_n = 1 | cmd_n = 0 | RDnWR = 1 | Addr_in = e0b | Data_in_vld = 0 | Data_in = 0
# UVM_INFO driver.sv(43) @ 1190: uvm_test_top.e.a.d [DRV] DATA SENT FROM DRIVER CLASS : rst_n = 1 | cmd_n = 0 | RDnWR = 1 | Addr_in = e0b | Data_in_vld = 0 | Data_in = 0
# UVM_INFO monitor.sv(49) @ 1340: uvm_test_top.e.a.m [MON_READ] DATA SENT rst_n:1 cmd_n:0 RDnWR:1 Addr_in:e0b Data_in_vld:0 Data_in:0 
# UVM_INFO scoreboard.sv(94) @ 1410: uvm_test_top.e.s [SBD_READ_RA] RA Success
# UVM_INFO scoreboard.sv(103) @ 1410: uvm_test_top.e.s [SBD_READ_CA] CA Success
# UVM_INFO scoreboard.sv(113) @ 1410: uvm_test_top.e.s [SBD_READ_CN] Csn Success
# UVM_INFO scoreboard.sv(123) @ 1410: uvm_test_top.e.s [SBD_READ_DO] Data out success expected = 396b8793 | got = 396b8793
# UVM_INFO rd_sequence.sv(26) @ 1410: uvm_test_top.e.a.seqr@@rd_seq [RD_SEQ] rst_n = 1 | cmd_n = 0 | RDnWR = 1 | Addr_in = 29ca | Data_in_vld = 0 | Data_in = 0
# UVM_INFO driver.sv(43) @ 1410: uvm_test_top.e.a.d [DRV] DATA SENT FROM DRIVER CLASS : rst_n = 1 | cmd_n = 0 | RDnWR = 1 | Addr_in = 29ca | Data_in_vld = 0 | Data_in = 0
# UVM_INFO monitor.sv(49) @ 1560: uvm_test_top.e.a.m [MON_READ] DATA SENT rst_n:1 cmd_n:0 RDnWR:1 Addr_in:29ca Data_in_vld:0 Data_in:0 
# UVM_INFO scoreboard.sv(94) @ 1630: uvm_test_top.e.s [SBD_READ_RA] RA Success
# UVM_INFO scoreboard.sv(103) @ 1630: uvm_test_top.e.s [SBD_READ_CA] CA Success
# UVM_INFO scoreboard.sv(113) @ 1630: uvm_test_top.e.s [SBD_READ_CN] Csn Success
# UVM_INFO scoreboard.sv(123) @ 1630: uvm_test_top.e.s [SBD_READ_DO] Data out success expected = c8223e8c | got = c8223e8c
# UVM_INFO rd_sequence.sv(26) @ 1630: uvm_test_top.e.a.seqr@@rd_seq [RD_SEQ] rst_n = 1 | cmd_n = 0 | RDnWR = 1 | Addr_in = e0b | Data_in_vld = 0 | Data_in = 0
# UVM_INFO driver.sv(43) @ 1630: uvm_test_top.e.a.d [DRV] DATA SENT FROM DRIVER CLASS : rst_n = 1 | cmd_n = 0 | RDnWR = 1 | Addr_in = e0b | Data_in_vld = 0 | Data_in = 0
# UVM_INFO monitor.sv(49) @ 1780: uvm_test_top.e.a.m [MON_READ] DATA SENT rst_n:1 cmd_n:0 RDnWR:1 Addr_in:e0b Data_in_vld:0 Data_in:0 
# UVM_INFO scoreboard.sv(94) @ 1850: uvm_test_top.e.s [SBD_READ_RA] RA Success
# UVM_INFO scoreboard.sv(103) @ 1850: uvm_test_top.e.s [SBD_READ_CA] CA Success
# UVM_INFO scoreboard.sv(113) @ 1850: uvm_test_top.e.s [SBD_READ_CN] Csn Success
# UVM_INFO scoreboard.sv(123) @ 1850: uvm_test_top.e.s [SBD_READ_DO] Data out success expected = 396b8793 | got = 396b8793
# UVM_INFO rd_sequence.sv(26) @ 1850: uvm_test_top.e.a.seqr@@rd_seq [RD_SEQ] rst_n = 1 | cmd_n = 0 | RDnWR = 1 | Addr_in = a992 | Data_in_vld = 0 | Data_in = 0
# UVM_INFO driver.sv(43) @ 1850: uvm_test_top.e.a.d [DRV] DATA SENT FROM DRIVER CLASS : rst_n = 1 | cmd_n = 0 | RDnWR = 1 | Addr_in = a992 | Data_in_vld = 0 | Data_in = 0
# UVM_INFO monitor.sv(49) @ 2000: uvm_test_top.e.a.m [MON_READ] DATA SENT rst_n:1 cmd_n:0 RDnWR:1 Addr_in:a992 Data_in_vld:0 Data_in:0 
# UVM_INFO scoreboard.sv(94) @ 2070: uvm_test_top.e.s [SBD_READ_RA] RA Success
# UVM_INFO scoreboard.sv(103) @ 2070: uvm_test_top.e.s [SBD_READ_CA] CA Success
# UVM_INFO scoreboard.sv(113) @ 2070: uvm_test_top.e.s [SBD_READ_CN] Csn Success
# UVM_INFO scoreboard.sv(123) @ 2070: uvm_test_top.e.s [SBD_READ_DO] Data out success expected = 5a3efeb6 | got = 5a3efeb6
# UVM_INFO rd_sequence.sv(26) @ 2070: uvm_test_top.e.a.seqr@@rd_seq [RD_SEQ] rst_n = 1 | cmd_n = 0 | RDnWR = 1 | Addr_in = c7e0 | Data_in_vld = 0 | Data_in = 0
# UVM_INFO driver.sv(43) @ 2070: uvm_test_top.e.a.d [DRV] DATA SENT FROM DRIVER CLASS : rst_n = 1 | cmd_n = 0 | RDnWR = 1 | Addr_in = c7e0 | Data_in_vld = 0 | Data_in = 0
# UVM_INFO monitor.sv(49) @ 2220: uvm_test_top.e.a.m [MON_READ] DATA SENT rst_n:1 cmd_n:0 RDnWR:1 Addr_in:c7e0 Data_in_vld:0 Data_in:0 
# UVM_INFO scoreboard.sv(94) @ 2290: uvm_test_top.e.s [SBD_READ_RA] RA Success
# UVM_INFO scoreboard.sv(103) @ 2290: uvm_test_top.e.s [SBD_READ_CA] CA Success
# UVM_INFO scoreboard.sv(113) @ 2290: uvm_test_top.e.s [SBD_READ_CN] Csn Success
# UVM_INFO scoreboard.sv(123) @ 2290: uvm_test_top.e.s [SBD_READ_DO] Data out success expected = 18573867 | got = 18573867
# UVM_INFO wr_invld_sequence.sv(17) @ 2290: uvm_test_top.e.a.seqr@@wr_invld_seq [WR_INVLD_SEQ] rst_n = 0 | cmd_n = 0 | RDnWR = 0 | Addr_in = b1a7 | Data_in_vld = 0 | Data_in = 8a6843a6
# UVM_INFO driver.sv(43) @ 2290: uvm_test_top.e.a.d [DRV] DATA SENT FROM DRIVER CLASS : rst_n = 1 | cmd_n = 1 | RDnWR = 0 | Addr_in = b1a7 | Data_in_vld = 0 | Data_in = 8a6843a6
# UVM_INFO monitor.sv(55) @ 2340: uvm_test_top.e.a.m [MON_WRITE] DATA SENT rst_n:1 cmd_n:1 RDnWR:0 Addr_in:b1a7 Data_in_vld:0 Data_in:8a6843a6 
# UVM_ERROR scoreboard.sv(80) @ 2380: uvm_test_top.e.s [SBD] cmd_n is 1 or data_in is not vld, operation not performed
# UVM_INFO wr_invld_sequence.sv(17) @ 2380: uvm_test_top.e.a.seqr@@wr_invld_seq [WR_INVLD_SEQ] rst_n = 0 | cmd_n = 0 | RDnWR = 0 | Addr_in = df82 | Data_in_vld = 1 | Data_in = 41eb25e6
# UVM_INFO driver.sv(43) @ 2380: uvm_test_top.e.a.d [DRV] DATA SENT FROM DRIVER CLASS : rst_n = 1 | cmd_n = 1 | RDnWR = 0 | Addr_in = df82 | Data_in_vld = 0 | Data_in = 41eb25e6
# UVM_INFO monitor.sv(55) @ 2430: uvm_test_top.e.a.m [MON_WRITE] DATA SENT rst_n:1 cmd_n:1 RDnWR:0 Addr_in:df82 Data_in_vld:0 Data_in:41eb25e6 
# UVM_ERROR scoreboard.sv(80) @ 2470: uvm_test_top.e.s [SBD] cmd_n is 1 or data_in is not vld, operation not performed
# UVM_INFO wr_invld_sequence.sv(17) @ 2470: uvm_test_top.e.a.seqr@@wr_invld_seq [WR_INVLD_SEQ] rst_n = 0 | cmd_n = 0 | RDnWR = 0 | Addr_in = 3b20 | Data_in_vld = 0 | Data_in = 620fe048
# UVM_INFO driver.sv(43) @ 2470: uvm_test_top.e.a.d [DRV] DATA SENT FROM DRIVER CLASS : rst_n = 1 | cmd_n = 1 | RDnWR = 0 | Addr_in = 3b20 | Data_in_vld = 0 | Data_in = 620fe048
# UVM_INFO monitor.sv(55) @ 2520: uvm_test_top.e.a.m [MON_WRITE] DATA SENT rst_n:1 cmd_n:1 RDnWR:0 Addr_in:3b20 Data_in_vld:0 Data_in:620fe048 
# UVM_ERROR scoreboard.sv(80) @ 2560: uvm_test_top.e.s [SBD] cmd_n is 1 or data_in is not vld, operation not performed
# UVM_INFO wr_invld_sequence.sv(17) @ 2560: uvm_test_top.e.a.seqr@@wr_invld_seq [WR_INVLD_SEQ] rst_n = 0 | cmd_n = 0 | RDnWR = 0 | Addr_in = f62d | Data_in_vld = 0 | Data_in = af586f93
# UVM_INFO driver.sv(43) @ 2560: uvm_test_top.e.a.d [DRV] DATA SENT FROM DRIVER CLASS : rst_n = 1 | cmd_n = 1 | RDnWR = 0 | Addr_in = f62d | Data_in_vld = 0 | Data_in = af586f93
# UVM_INFO monitor.sv(55) @ 2610: uvm_test_top.e.a.m [MON_WRITE] DATA SENT rst_n:1 cmd_n:1 RDnWR:0 Addr_in:f62d Data_in_vld:0 Data_in:af586f93 
# UVM_ERROR scoreboard.sv(80) @ 2650: uvm_test_top.e.s [SBD] cmd_n is 1 or data_in is not vld, operation not performed
# UVM_INFO wr_invld_sequence.sv(17) @ 2650: uvm_test_top.e.a.seqr@@wr_invld_seq [WR_INVLD_SEQ] rst_n = 0 | cmd_n = 0 | RDnWR = 0 | Addr_in = 1592 | Data_in_vld = 1 | Data_in = b3d1947
# UVM_INFO driver.sv(43) @ 2650: uvm_test_top.e.a.d [DRV] DATA SENT FROM DRIVER CLASS : rst_n = 1 | cmd_n = 1 | RDnWR = 0 | Addr_in = 1592 | Data_in_vld = 0 | Data_in = b3d1947
# UVM_INFO monitor.sv(55) @ 2700: uvm_test_top.e.a.m [MON_WRITE] DATA SENT rst_n:1 cmd_n:1 RDnWR:0 Addr_in:1592 Data_in_vld:0 Data_in:b3d1947 
# UVM_ERROR scoreboard.sv(80) @ 2740: uvm_test_top.e.s [SBD] cmd_n is 1 or data_in is not vld, operation not performed
# UVM_INFO wr_invld_sequence.sv(17) @ 2740: uvm_test_top.e.a.seqr@@wr_invld_seq [WR_INVLD_SEQ] rst_n = 0 | cmd_n = 0 | RDnWR = 0 | Addr_in = 249d | Data_in_vld = 0 | Data_in = 97ff0c53
# UVM_INFO driver.sv(43) @ 2740: uvm_test_top.e.a.d [DRV] DATA SENT FROM DRIVER CLASS : rst_n = 1 | cmd_n = 1 | RDnWR = 0 | Addr_in = 249d | Data_in_vld = 0 | Data_in = 97ff0c53
# UVM_INFO monitor.sv(55) @ 2790: uvm_test_top.e.a.m [MON_WRITE] DATA SENT rst_n:1 cmd_n:1 RDnWR:0 Addr_in:249d Data_in_vld:0 Data_in:97ff0c53 
# UVM_ERROR scoreboard.sv(80) @ 2830: uvm_test_top.e.s [SBD] cmd_n is 1 or data_in is not vld, operation not performed
# UVM_INFO cmd_n_sequence.sv(20) @ 2830: uvm_test_top.e.a.seqr@@cdn_seq [CMD_N_SEQ] rst_n = 1 | cmd_n = 1 | RDnWR = 0 | Addr_in = 98e3 | Data_in_vld = 0 | Data_in = 33243651
# UVM_INFO driver.sv(43) @ 2830: uvm_test_top.e.a.d [DRV] DATA SENT FROM DRIVER CLASS : rst_n = 1 | cmd_n = 1 | RDnWR = 0 | Addr_in = 98e3 | Data_in_vld = 0 | Data_in = 33243651
# UVM_INFO monitor.sv(55) @ 2880: uvm_test_top.e.a.m [MON_WRITE] DATA SENT rst_n:1 cmd_n:1 RDnWR:0 Addr_in:98e3 Data_in_vld:0 Data_in:33243651 
# UVM_ERROR scoreboard.sv(80) @ 2920: uvm_test_top.e.s [SBD] cmd_n is 1 or data_in is not vld, operation not performed
# UVM_INFO cmd_n_sequence.sv(20) @ 2920: uvm_test_top.e.a.seqr@@cdn_seq [CMD_N_SEQ] rst_n = 1 | cmd_n = 1 | RDnWR = 0 | Addr_in = cb46 | Data_in_vld = 0 | Data_in = fb112d3d
# UVM_INFO driver.sv(43) @ 2920: uvm_test_top.e.a.d [DRV] DATA SENT FROM DRIVER CLASS : rst_n = 1 | cmd_n = 1 | RDnWR = 0 | Addr_in = cb46 | Data_in_vld = 0 | Data_in = fb112d3d
# UVM_INFO monitor.sv(55) @ 2970: uvm_test_top.e.a.m [MON_WRITE] DATA SENT rst_n:1 cmd_n:1 RDnWR:0 Addr_in:cb46 Data_in_vld:0 Data_in:fb112d3d 
# UVM_ERROR scoreboard.sv(80) @ 3010: uvm_test_top.e.s [SBD] cmd_n is 1 or data_in is not vld, operation not performed
# UVM_INFO cmd_n_sequence.sv(20) @ 3010: uvm_test_top.e.a.seqr@@cdn_seq [CMD_N_SEQ] rst_n = 1 | cmd_n = 1 | RDnWR = 0 | Addr_in = 4030 | Data_in_vld = 0 | Data_in = d35addf7
# UVM_INFO driver.sv(43) @ 3010: uvm_test_top.e.a.d [DRV] DATA SENT FROM DRIVER CLASS : rst_n = 1 | cmd_n = 1 | RDnWR = 0 | Addr_in = 4030 | Data_in_vld = 0 | Data_in = d35addf7
# UVM_INFO monitor.sv(55) @ 3060: uvm_test_top.e.a.m [MON_WRITE] DATA SENT rst_n:1 cmd_n:1 RDnWR:0 Addr_in:4030 Data_in_vld:0 Data_in:d35addf7 
# UVM_ERROR scoreboard.sv(80) @ 3100: uvm_test_top.e.s [SBD] cmd_n is 1 or data_in is not vld, operation not performed
# UVM_INFO cmd_n_sequence.sv(20) @ 3100: uvm_test_top.e.a.seqr@@cdn_seq [CMD_N_SEQ] rst_n = 1 | cmd_n = 1 | RDnWR = 0 | Addr_in = 1bf7 | Data_in_vld = 1 | Data_in = b7fb6644
# UVM_INFO driver.sv(43) @ 3100: uvm_test_top.e.a.d [DRV] DATA SENT FROM DRIVER CLASS : rst_n = 1 | cmd_n = 1 | RDnWR = 0 | Addr_in = 1bf7 | Data_in_vld = 1 | Data_in = b7fb6644
# UVM_INFO monitor.sv(55) @ 3150: uvm_test_top.e.a.m [MON_WRITE] DATA SENT rst_n:1 cmd_n:1 RDnWR:0 Addr_in:1bf7 Data_in_vld:1 Data_in:b7fb6644 
# UVM_ERROR scoreboard.sv(80) @ 3190: uvm_test_top.e.s [SBD] cmd_n is 1 or data_in is not vld, operation not performed
# UVM_INFO cmd_n_sequence.sv(20) @ 3190: uvm_test_top.e.a.seqr@@cdn_seq [CMD_N_SEQ] rst_n = 1 | cmd_n = 1 | RDnWR = 0 | Addr_in = 913c | Data_in_vld = 1 | Data_in = 7895d696
# UVM_INFO driver.sv(43) @ 3190: uvm_test_top.e.a.d [DRV] DATA SENT FROM DRIVER CLASS : rst_n = 1 | cmd_n = 1 | RDnWR = 0 | Addr_in = 913c | Data_in_vld = 1 | Data_in = 7895d696
# UVM_INFO monitor.sv(55) @ 3240: uvm_test_top.e.a.m [MON_WRITE] DATA SENT rst_n:1 cmd_n:1 RDnWR:0 Addr_in:913c Data_in_vld:1 Data_in:7895d696 
# UVM_ERROR scoreboard.sv(80) @ 3280: uvm_test_top.e.s [SBD] cmd_n is 1 or data_in is not vld, operation not performed
# UVM_INFO randomize_sequence.sv(21) @ 3280: uvm_test_top.e.a.seqr@@rdm_seq [RD_SEQ] rst_n = 1 | cmd_n = 0 | RDnWR = 1 | Addr_in = ee77 | Data_in_vld = 0 | Data_in = 359acb5b
# UVM_INFO driver.sv(43) @ 3280: uvm_test_top.e.a.d [DRV] DATA SENT FROM DRIVER CLASS : rst_n = 1 | cmd_n = 0 | RDnWR = 1 | Addr_in = ee77 | Data_in_vld = 0 | Data_in = 359acb5b
