testrun/qrun.log
QuestaSim-64 qrun 2024.1 Utility 2024.02 Feb  1 2024
Start time: 15:25:16 on Apr 09,2025
qrun tb_top.sv 
QuestaSim-64 vlog 2024.1 Compiler 2024.02 Feb  1 2024
Start time: 15:25:16 on Apr 09,2025
vlog tb_top.sv -work ./work -statslog qrun.out/stats_log -writesessionid "+qrun.out/top_dus" -csession=incr -csessionid=7 
** Note: (vlog-2286) tb_top.sv(2): Using implicit +incdir+C:/questasim64_2024.1/uvm-1.1d/../verilog_src/uvm-1.1d/src from import uvm_pkg
-- Compiling package tb_top_sv_unit
-- Importing package mtiUvm.uvm_pkg (uvm-1.1d Built-in)
-- Importing package mem_ctrl_pkg
-- Compiling package mem_ctrl_pkg
-- Compiling module mem_ctrl
-- Compiling interface mem_ctrl_if
-- Compiling module tb_top

Top level modules:
	tb_top
End time: 15:25:17 on Apr 09,2025, Elapsed time: 0:00:01
Errors: 0, Warnings: 0
QuestaSim-64 vopt 2024.1 Compiler 2024.02 Feb  1 2024
Start time: 15:25:17 on Apr 09,2025
vopt -findtoplevels D:/UVM/UVM_MAIN_PROJECT/testrun/work+7+ -work ./work -statslog qrun.out/stats_log -csession=incr -o qrun_opt_1 -csessionid=30 

Top level modules:
	tb_top

Analyzing design...
-- Loading module tb_top
-- Loading package mtiUvm.questa_uvm_pkg
-- Loading interface mem_ctrl_if
-- Loading module mem_ctrl
Incremental compilation check found 2 design-units (out of 8) may be reused.
Optimizing 6 design-units (inlining 2/3 module instances):
-- Optimizing package mem_ctrl_pkg(fast)
-- Optimizing package tb_top_sv_unit(fast)
-- Inlining interface mem_ctrl_if(fast__2)
-- Inlining module mem_ctrl(fast)
-- Optimizing module tb_top(fast)
-- Optimizing interface mem_ctrl_if(fast)
Optimized design name is qrun_opt_1
End time: 15:25:21 on Apr 09,2025, Elapsed time: 0:00:04
Errors: 0, Warnings: 0
# vsim -lib ./work -c -do "run -all; quit -f" -statslog qrun.out/stats_log qrun_opt_1 -appendlog -l qrun.log -csession=incr -csessionid=9 
# Start time: 15:25:23 on Apr 09,2025
# //  Questa Sim-64
# //  Version 2024.1 win64 Feb  1 2024
# //
# // Unpublished work. Copyright 2024 Siemens
# //
# // This material contains trade secrets or otherwise confidential information
# // owned by Siemens Industry Software Inc. or its affiliates (collectively,
# // "SISW"), or its licensors. Access to and use of this information is strictly
# // limited as set forth in the Customer's applicable agreements with SISW.
# //
# // This material may not be copied, distributed, or otherwise disclosed outside
# // of the Customer's facilities without the express written permission of SISW,
# // and may not be used in any way not expressly authorized by SISW.
# //
# Loading sv_std.std
# Loading work.mem_ctrl_if(fast)
# Loading mtiUvm.uvm_pkg(fast)
# Loading work.mem_ctrl_pkg(fast)
# Loading work.tb_top_sv_unit(fast)
# Loading mtiUvm.questa_uvm_pkg(fast)
# Loading work.tb_top(fast)
# Loading C:/questasim64_2024.1/uvm-1.1d\win64\uvm_dpi.dll
# run -all
# ----------------------------------------------------------------
# UVM-1.1d
# (C) 2007-2013 Mentor Graphics Corporation
# (C) 2007-2013 Cadence Design Systems, Inc.
# (C) 2006-2013 Synopsys, Inc.
# (C) 2011-2013 Cypress Semiconductor Corp.
# ----------------------------------------------------------------
# 
#   ***********       IMPORTANT RELEASE NOTES         ************
# 
#   You are using a version of the UVM library that has been compiled
#   with `UVM_NO_DEPRECATED undefined.
#   See http://www.eda.org/svdb/view.php?id=3313 for more details.
# 
#   You are using a version of the UVM library that has been compiled
#   with `UVM_OBJECT_MUST_HAVE_CONSTRUCTOR undefined.
#   See http://www.eda.org/svdb/view.php?id=3770 for more details.
# 
#       (Specify +UVM_NO_RELNOTES to turn off this notice)
# 
# UVM_INFO verilog_src/questa_uvm_pkg-1.2/src/questa_uvm_pkg.sv(277) @ 0: reporter [Questa UVM] QUESTA_UVM-1.2.3
# UVM_INFO verilog_src/questa_uvm_pkg-1.2/src/questa_uvm_pkg.sv(278) @ 0: reporter [Questa UVM]  questa_uvm::init(+struct)
# UVM_INFO @ 0: reporter [RNTST] Running test test...
#                    0 Command is 0
# UVM_INFO wr_sequence.sv(22) @ 0: uvm_test_top.e.a.seqr@@wr_seq [wr_sequence] rst_n = 1 | cmd_n = 0 | RDnWR = 0 | Addr_in = c7e0 | Data_in_vld = 1 | Data_in = 18573867
# UVM_INFO driver.sv(46) @ 0: uvm_test_top.e.a.d [DRV] DATA SENT FROM DRIVER CLASS : rst_n = 1 | cmd_n = 0 | RDnWR = 0 | Addr_in = c7e0 | Data_in_vld = 1 | Data_in = 18573867 DQ = x
#                   10 Command is 0
#                   20 Command is 1
#                   30 Command is 7
#                   40 Command is 7
# UVM_INFO monitor.sv(56) @ 40: uvm_test_top.e.a.m [MON] DATA SENT rst_n:1 cmd_n:0 RDnWR:0 Addr_in:c7e0 Data_in_vld:1 Data_in:18573867 
# UVM_INFO scoreboard.sv(63) @ 40: uvm_test_top.e.s [SBD] WRITE: Addr = c7e0, Data = 18573867
#                   50 Command is 7
#                   60 Command is 7
#                   70 Command is 7
#                   80 Command is 3
# UVM_INFO monitor.sv(56) @ 80: uvm_test_top.e.a.m [MON] DATA SENT rst_n:1 cmd_n:0 RDnWR:0 Addr_in:c7e0 Data_in_vld:1 Data_in:18573867 
# UVM_INFO scoreboard.sv(73) @ 80: uvm_test_top.e.s [SBD] WRITE already done
#                   90 Command is 1
#                  100 Command is 7
#                  110 Command is 7
#                  120 Command is 7
# UVM_INFO monitor.sv(56) @ 120: uvm_test_top.e.a.m [MON] DATA SENT rst_n:1 cmd_n:0 RDnWR:0 Addr_in:c7e0 Data_in_vld:1 Data_in:18573867 
# UVM_INFO scoreboard.sv(73) @ 120: uvm_test_top.e.s [SBD] WRITE already done
# UVM_INFO wr_sequence.sv(22) @ 120: uvm_test_top.e.a.seqr@@wr_seq [wr_sequence] rst_n = 1 | cmd_n = 0 | RDnWR = 0 | Addr_in = a06a | Data_in_vld = 1 | Data_in = 9633abb8
# UVM_INFO driver.sv(46) @ 120: uvm_test_top.e.a.d [DRV] DATA SENT FROM DRIVER CLASS : rst_n = 1 | cmd_n = 0 | RDnWR = 0 | Addr_in = a06a | Data_in_vld = 1 | Data_in = 9633abb8 DQ = 18573867
#                  130 Command is 7
#                  140 Command is 7
#                  150 Command is 3
#                  160 Command is 1
# UVM_INFO monitor.sv(56) @ 160: uvm_test_top.e.a.m [MON] DATA SENT rst_n:1 cmd_n:0 RDnWR:0 Addr_in:a06a Data_in_vld:1 Data_in:9633abb8 
# UVM_INFO scoreboard.sv(63) @ 160: uvm_test_top.e.s [SBD] WRITE: Addr = a06a, Data = 9633abb8
#                  170 Command is 4
#                  180 Command is 0
#                  190 Command is 1
#                  200 Command is 7
# UVM_INFO monitor.sv(56) @ 200: uvm_test_top.e.a.m [MON] DATA SENT rst_n:1 cmd_n:0 RDnWR:0 Addr_in:a06a Data_in_vld:1 Data_in:9633abb8 
# UVM_INFO scoreboard.sv(73) @ 200: uvm_test_top.e.s [SBD] WRITE already done
#                  210 Command is 7
#                  220 Command is 7
#                  230 Command is 7
#                  240 Command is 7
# UVM_INFO monitor.sv(56) @ 240: uvm_test_top.e.a.m [MON] DATA SENT rst_n:1 cmd_n:0 RDnWR:0 Addr_in:a06a Data_in_vld:1 Data_in:9633abb8 
# UVM_INFO scoreboard.sv(73) @ 240: uvm_test_top.e.s [SBD] WRITE already done
# UVM_INFO wr_sequence.sv(22) @ 240: uvm_test_top.e.a.seqr@@wr_seq [wr_sequence] rst_n = 1 | cmd_n = 0 | RDnWR = 0 | Addr_in = 29ca | Data_in_vld = 1 | Data_in = c8223e8c
# UVM_INFO driver.sv(46) @ 240: uvm_test_top.e.a.d [DRV] DATA SENT FROM DRIVER CLASS : rst_n = 1 | cmd_n = 0 | RDnWR = 0 | Addr_in = 29ca | Data_in_vld = 1 | Data_in = c8223e8c DQ = 9633abb8
#                  250 Command is 3
#                  260 Command is 3
#                  270 Command is 1
#                  280 Command is 4
# UVM_INFO monitor.sv(56) @ 280: uvm_test_top.e.a.m [MON] DATA SENT rst_n:1 cmd_n:0 RDnWR:0 Addr_in:29ca Data_in_vld:1 Data_in:c8223e8c 
# UVM_INFO scoreboard.sv(63) @ 280: uvm_test_top.e.s [SBD] WRITE: Addr = 29ca, Data = c8223e8c
#                  290 Command is 0
#                  300 Command is 1
#                  310 Command is 7
#                  320 Command is 7
# UVM_INFO monitor.sv(56) @ 320: uvm_test_top.e.a.m [MON] DATA SENT rst_n:1 cmd_n:0 RDnWR:0 Addr_in:29ca Data_in_vld:1 Data_in:c8223e8c 
# UVM_INFO scoreboard.sv(73) @ 320: uvm_test_top.e.s [SBD] WRITE already done
#                  330 Command is 7
#                  340 Command is 7
#                  350 Command is 7
#                  360 Command is 3
# UVM_INFO monitor.sv(56) @ 360: uvm_test_top.e.a.m [MON] DATA SENT rst_n:1 cmd_n:0 RDnWR:0 Addr_in:29ca Data_in_vld:1 Data_in:c8223e8c 
# UVM_INFO scoreboard.sv(73) @ 360: uvm_test_top.e.s [SBD] WRITE already done
# UVM_INFO wr_sequence.sv(22) @ 360: uvm_test_top.e.a.seqr@@wr_seq [wr_sequence] rst_n = 1 | cmd_n = 0 | RDnWR = 0 | Addr_in = d67f | Data_in_vld = 1 | Data_in = 50d14e4d
# UVM_INFO driver.sv(46) @ 360: uvm_test_top.e.a.d [DRV] DATA SENT FROM DRIVER CLASS : rst_n = 1 | cmd_n = 0 | RDnWR = 0 | Addr_in = d67f | Data_in_vld = 1 | Data_in = 50d14e4d DQ = c8223e8c
#                  370 Command is 1
#                  380 Command is 4
#                  390 Command is 0
#                  400 Command is 1
# UVM_INFO monitor.sv(56) @ 400: uvm_test_top.e.a.m [MON] DATA SENT rst_n:1 cmd_n:0 RDnWR:0 Addr_in:d67f Data_in_vld:1 Data_in:50d14e4d 
# UVM_INFO scoreboard.sv(63) @ 400: uvm_test_top.e.s [SBD] WRITE: Addr = d67f, Data = 50d14e4d
#                  410 Command is 7
#                  420 Command is 7
#                  430 Command is 7
#                  440 Command is 7
# UVM_INFO monitor.sv(56) @ 440: uvm_test_top.e.a.m [MON] DATA SENT rst_n:1 cmd_n:0 RDnWR:0 Addr_in:d67f Data_in_vld:1 Data_in:50d14e4d 
# UVM_INFO scoreboard.sv(73) @ 440: uvm_test_top.e.s [SBD] WRITE already done
#                  450 Command is 7
#                  460 Command is 3
#                  470 Command is 3
#                  480 Command is 1
# UVM_INFO monitor.sv(56) @ 480: uvm_test_top.e.a.m [MON] DATA SENT rst_n:1 cmd_n:0 RDnWR:0 Addr_in:d67f Data_in_vld:1 Data_in:50d14e4d 
# UVM_INFO scoreboard.sv(73) @ 480: uvm_test_top.e.s [SBD] WRITE already done
# UVM_INFO wr_sequence.sv(22) @ 480: uvm_test_top.e.a.seqr@@wr_seq [wr_sequence] rst_n = 1 | cmd_n = 0 | RDnWR = 0 | Addr_in = c5ea | Data_in_vld = 1 | Data_in = 216c33a5
# UVM_INFO driver.sv(46) @ 480: uvm_test_top.e.a.d [DRV] DATA SENT FROM DRIVER CLASS : rst_n = 1 | cmd_n = 0 | RDnWR = 0 | Addr_in = c5ea | Data_in_vld = 1 | Data_in = 216c33a5 DQ = 50d14e4d
#                  490 Command is 7
#                  500 Command is 7
#                  510 Command is 7
#                  520 Command is 7
# UVM_INFO monitor.sv(56) @ 520: uvm_test_top.e.a.m [MON] DATA SENT rst_n:1 cmd_n:0 RDnWR:0 Addr_in:c5ea Data_in_vld:1 Data_in:216c33a5 
# UVM_INFO scoreboard.sv(63) @ 520: uvm_test_top.e.s [SBD] WRITE: Addr = c5ea, Data = 216c33a5
#                  530 Command is 7
#                  540 Command is 3
#                  550 Command is 1
#                  560 Command is 4
# UVM_INFO monitor.sv(56) @ 560: uvm_test_top.e.a.m [MON] DATA SENT rst_n:1 cmd_n:0 RDnWR:0 Addr_in:c5ea Data_in_vld:1 Data_in:216c33a5 
# UVM_INFO scoreboard.sv(73) @ 560: uvm_test_top.e.s [SBD] WRITE already done
#                  570 Command is 0
#                  580 Command is 1
#                  590 Command is 7
#                  600 Command is 7
# UVM_INFO monitor.sv(56) @ 600: uvm_test_top.e.a.m [MON] DATA SENT rst_n:1 cmd_n:0 RDnWR:0 Addr_in:c5ea Data_in_vld:1 Data_in:216c33a5 
# UVM_INFO scoreboard.sv(73) @ 600: uvm_test_top.e.s [SBD] WRITE already done
# UVM_INFO rd_sequence.sv(26) @ 600: uvm_test_top.e.a.seqr@@rd_seq [RD_SEQ] rst_n = 1 | cmd_n = 0 | RDnWR = 1 | Addr_in = a06a | Data_in_vld = 0 | Data_in = 0
# UVM_INFO driver.sv(46) @ 600: uvm_test_top.e.a.d [DRV] DATA SENT FROM DRIVER CLASS : rst_n = 1 | cmd_n = 0 | RDnWR = 1 | Addr_in = a06a | Data_in_vld = 0 | Data_in = 0 DQ = 216c33a5
#                  610 Command is 7
#                  620 Command is 7
#                  630 Command is 7
# UVM_INFO monitor.sv(56) @ 630: uvm_test_top.e.a.m [MON] DATA SENT rst_n:1 cmd_n:0 RDnWR:1 Addr_in:a06a Data_in_vld:0 Data_in:0 
#                  640 Command is 2
#                  650 Command is 7
#                  660 Command is 7
# UVM_INFO monitor.sv(56) @ 660: uvm_test_top.e.a.m [MON] DATA SENT rst_n:1 cmd_n:0 RDnWR:1 Addr_in:a06a Data_in_vld:0 Data_in:0 
#                  670 Command is 7
#                  680 Command is 7
#                  690 Command is 7
# UVM_INFO monitor.sv(56) @ 690: uvm_test_top.e.a.m [MON] DATA SENT rst_n:1 cmd_n:0 RDnWR:1 Addr_in:a06a Data_in_vld:0 Data_in:0 
#                  700 Command is 4
#                  710 Command is 0
#                  720 Command is 1
# UVM_INFO monitor.sv(56) @ 720: uvm_test_top.e.a.m [MON] DATA SENT rst_n:1 cmd_n:0 RDnWR:1 Addr_in:a06a Data_in_vld:0 Data_in:0 
#                  730 Command is 7
#                  740 Command is 7
#                  750 Command is 7
# UVM_INFO monitor.sv(56) @ 750: uvm_test_top.e.a.m [MON] DATA SENT rst_n:1 cmd_n:0 RDnWR:1 Addr_in:a06a Data_in_vld:0 Data_in:0 
#                  760 Command is 7
#                  770 Command is 7
#                  780 Command is 2
#                  790 Command is 6
#                  800 Command is 6
#                  810 Command is 6
# UVM_INFO monitor.sv(56) @ 810: uvm_test_top.e.a.m [MON] DATA SENT rst_n:1 cmd_n:0 RDnWR:1 Addr_in:a06a Data_in_vld:0 Data_in:0 
#                  820 Command is 2
#                  830 Command is 6
#                  840 Command is 6
# UVM_INFO monitor.sv(56) @ 840: uvm_test_top.e.a.m [MON] DATA SENT rst_n:1 cmd_n:0 RDnWR:1 Addr_in:a06a Data_in_vld:0 Data_in:0 
#                  850 Command is 6
#                  860 Command is 2
#                  870 Command is 6
# UVM_INFO monitor.sv(56) @ 870: uvm_test_top.e.a.m [MON] DATA SENT rst_n:1 cmd_n:0 RDnWR:1 Addr_in:a06a Data_in_vld:0 Data_in:0 
# UVM_INFO scoreboard.sv(90) @ 870: uvm_test_top.e.s [SBD_READ_RA] RA Success
# UVM_INFO scoreboard.sv(99) @ 870: uvm_test_top.e.s [SBD_READ_CA] CA Success
# UVM_INFO scoreboard.sv(109) @ 870: uvm_test_top.e.s [SBD_READ_CN] Csn Success
#                  880 Command is 6
# UVM_INFO scoreboard.sv(121) @ 880: uvm_test_top.e.s [SBD_READ_DO] Data out success had = 9633abb8 expected = 9633abb8 | got = 9633abb8 | mcif_command = 6 | tc_command = 6
# UVM_INFO rd_sequence.sv(26) @ 880: uvm_test_top.e.a.seqr@@rd_seq [RD_SEQ] rst_n = 1 | cmd_n = 0 | RDnWR = 1 | Addr_in = c5ea | Data_in_vld = 0 | Data_in = 0
# UVM_INFO driver.sv(46) @ 880: uvm_test_top.e.a.d [DRV] DATA SENT FROM DRIVER CLASS : rst_n = 1 | cmd_n = 0 | RDnWR = 1 | Addr_in = c5ea | Data_in_vld = 0 | Data_in = 0 DQ = z
#                  890 Command is 6
#                  900 Command is 2
#                  910 Command is 7
#                  920 Command is 7
#                  930 Command is 7
# UVM_INFO monitor.sv(56) @ 930: uvm_test_top.e.a.m [MON] DATA SENT rst_n:1 cmd_n:0 RDnWR:1 Addr_in:c5ea Data_in_vld:0 Data_in:0 
#                  940 Command is 7
#                  950 Command is 7
#                  960 Command is 4
# UVM_INFO monitor.sv(56) @ 960: uvm_test_top.e.a.m [MON] DATA SENT rst_n:1 cmd_n:0 RDnWR:1 Addr_in:c5ea Data_in_vld:0 Data_in:0 
#                  970 Command is 0
#                  980 Command is 1
#                  990 Command is 7
# UVM_INFO monitor.sv(56) @ 990: uvm_test_top.e.a.m [MON] DATA SENT rst_n:1 cmd_n:0 RDnWR:1 Addr_in:c5ea Data_in_vld:0 Data_in:0 
#                 1000 Command is 7
#                 1010 Command is 7
#                 1020 Command is 7
# UVM_INFO monitor.sv(56) @ 1020: uvm_test_top.e.a.m [MON] DATA SENT rst_n:1 cmd_n:0 RDnWR:1 Addr_in:c5ea Data_in_vld:0 Data_in:0 
#                 1030 Command is 7
#                 1040 Command is 2
#                 1050 Command is 6
# UVM_INFO monitor.sv(56) @ 1050: uvm_test_top.e.a.m [MON] DATA SENT rst_n:1 cmd_n:0 RDnWR:1 Addr_in:c5ea Data_in_vld:0 Data_in:0 
#                 1060 Command is 6
#                 1070 Command is 6
#                 1080 Command is 2
#                 1090 Command is 6
#                 1100 Command is 6
#                 1110 Command is 6
# UVM_INFO monitor.sv(56) @ 1110: uvm_test_top.e.a.m [MON] DATA SENT rst_n:1 cmd_n:0 RDnWR:1 Addr_in:c5ea Data_in_vld:0 Data_in:0 
#                 1120 Command is 2
#                 1130 Command is 6
#                 1140 Command is 6
# UVM_INFO monitor.sv(56) @ 1140: uvm_test_top.e.a.m [MON] DATA SENT rst_n:1 cmd_n:0 RDnWR:1 Addr_in:c5ea Data_in_vld:0 Data_in:0 
#                 1150 Command is 6
#                 1160 Command is 2
#                 1170 Command is 6
# UVM_INFO monitor.sv(56) @ 1170: uvm_test_top.e.a.m [MON] DATA SENT rst_n:1 cmd_n:0 RDnWR:1 Addr_in:c5ea Data_in_vld:0 Data_in:0 
# UVM_INFO scoreboard.sv(90) @ 1170: uvm_test_top.e.s [SBD_READ_RA] RA Success
# UVM_INFO scoreboard.sv(99) @ 1170: uvm_test_top.e.s [SBD_READ_CA] CA Success
# UVM_INFO scoreboard.sv(109) @ 1170: uvm_test_top.e.s [SBD_READ_CN] Csn Success
#                 1180 Command is 6
# UVM_INFO scoreboard.sv(121) @ 1180: uvm_test_top.e.s [SBD_READ_DO] Data out success had = 216c33a5 expected = 216c33a5 | got = 216c33a5 | mcif_command = 6 | tc_command = 6
# UVM_INFO rd_sequence.sv(26) @ 1180: uvm_test_top.e.a.seqr@@rd_seq [RD_SEQ] rst_n = 1 | cmd_n = 0 | RDnWR = 1 | Addr_in = c5ea | Data_in_vld = 0 | Data_in = 0
# UVM_INFO driver.sv(46) @ 1180: uvm_test_top.e.a.d [DRV] DATA SENT FROM DRIVER CLASS : rst_n = 1 | cmd_n = 0 | RDnWR = 1 | Addr_in = c5ea | Data_in_vld = 0 | Data_in = 0 DQ = z
#                 1190 Command is 6
#                 1200 Command is 2
#                 1210 Command is 6
#                 1220 Command is 6
#                 1230 Command is 6
# UVM_INFO monitor.sv(56) @ 1230: uvm_test_top.e.a.m [MON] DATA SENT rst_n:1 cmd_n:0 RDnWR:1 Addr_in:c5ea Data_in_vld:0 Data_in:0 
#                 1240 Command is 2
#                 1250 Command is 6
#                 1260 Command is 6
# UVM_INFO monitor.sv(56) @ 1260: uvm_test_top.e.a.m [MON] DATA SENT rst_n:1 cmd_n:0 RDnWR:1 Addr_in:c5ea Data_in_vld:0 Data_in:0 
#                 1270 Command is 6
#                 1280 Command is 2
#                 1290 Command is 6
# UVM_INFO monitor.sv(56) @ 1290: uvm_test_top.e.a.m [MON] DATA SENT rst_n:1 cmd_n:0 RDnWR:1 Addr_in:c5ea Data_in_vld:0 Data_in:0 
# UVM_INFO scoreboard.sv(90) @ 1290: uvm_test_top.e.s [SBD_READ_RA] RA Success
# UVM_INFO scoreboard.sv(99) @ 1290: uvm_test_top.e.s [SBD_READ_CA] CA Success
# UVM_INFO scoreboard.sv(109) @ 1290: uvm_test_top.e.s [SBD_READ_CN] Csn Success
#                 1300 Command is 6
# UVM_INFO scoreboard.sv(121) @ 1300: uvm_test_top.e.s [SBD_READ_DO] Data out success had = 216c33a5 expected = 216c33a5 | got = 216c33a5 | mcif_command = 6 | tc_command = 6
# UVM_INFO rd_sequence.sv(26) @ 1300: uvm_test_top.e.a.seqr@@rd_seq [RD_SEQ] rst_n = 1 | cmd_n = 0 | RDnWR = 1 | Addr_in = 29ca | Data_in_vld = 0 | Data_in = 0
# UVM_INFO driver.sv(46) @ 1300: uvm_test_top.e.a.d [DRV] DATA SENT FROM DRIVER CLASS : rst_n = 1 | cmd_n = 0 | RDnWR = 1 | Addr_in = 29ca | Data_in_vld = 0 | Data_in = 0 DQ = z
#                 1310 Command is 6
#                 1320 Command is 2
#                 1330 Command is 7
#                 1340 Command is 7
#                 1350 Command is 7
# UVM_INFO monitor.sv(56) @ 1350: uvm_test_top.e.a.m [MON] DATA SENT rst_n:1 cmd_n:0 RDnWR:1 Addr_in:29ca Data_in_vld:0 Data_in:0 
#                 1360 Command is 7
#                 1370 Command is 7
#                 1380 Command is 4
# UVM_INFO monitor.sv(56) @ 1380: uvm_test_top.e.a.m [MON] DATA SENT rst_n:1 cmd_n:0 RDnWR:1 Addr_in:29ca Data_in_vld:0 Data_in:0 
#                 1390 Command is 0
#                 1400 Command is 1
#                 1410 Command is 7
# UVM_INFO monitor.sv(56) @ 1410: uvm_test_top.e.a.m [MON] DATA SENT rst_n:1 cmd_n:0 RDnWR:1 Addr_in:29ca Data_in_vld:0 Data_in:0 
#                 1420 Command is 7
#                 1430 Command is 7
#                 1440 Command is 7
# UVM_INFO monitor.sv(56) @ 1440: uvm_test_top.e.a.m [MON] DATA SENT rst_n:1 cmd_n:0 RDnWR:1 Addr_in:29ca Data_in_vld:0 Data_in:0 
#                 1450 Command is 7
#                 1460 Command is 2
#                 1470 Command is 6
# UVM_INFO monitor.sv(56) @ 1470: uvm_test_top.e.a.m [MON] DATA SENT rst_n:1 cmd_n:0 RDnWR:1 Addr_in:29ca Data_in_vld:0 Data_in:0 
#                 1480 Command is 6
#                 1490 Command is 6
#                 1500 Command is 2
#                 1510 Command is 6
#                 1520 Command is 6
#                 1530 Command is 6
# UVM_INFO monitor.sv(56) @ 1530: uvm_test_top.e.a.m [MON] DATA SENT rst_n:1 cmd_n:0 RDnWR:1 Addr_in:29ca Data_in_vld:0 Data_in:0 
#                 1540 Command is 2
#                 1550 Command is 6
#                 1560 Command is 6
# UVM_INFO monitor.sv(56) @ 1560: uvm_test_top.e.a.m [MON] DATA SENT rst_n:1 cmd_n:0 RDnWR:1 Addr_in:29ca Data_in_vld:0 Data_in:0 
#                 1570 Command is 6
#                 1580 Command is 2
#                 1590 Command is 6
# UVM_INFO monitor.sv(56) @ 1590: uvm_test_top.e.a.m [MON] DATA SENT rst_n:1 cmd_n:0 RDnWR:1 Addr_in:29ca Data_in_vld:0 Data_in:0 
# UVM_INFO scoreboard.sv(90) @ 1590: uvm_test_top.e.s [SBD_READ_RA] RA Success
# UVM_INFO scoreboard.sv(99) @ 1590: uvm_test_top.e.s [SBD_READ_CA] CA Success
# UVM_INFO scoreboard.sv(109) @ 1590: uvm_test_top.e.s [SBD_READ_CN] Csn Success
#                 1600 Command is 6
# UVM_INFO scoreboard.sv(121) @ 1600: uvm_test_top.e.s [SBD_READ_DO] Data out success had = c8223e8c expected = c8223e8c | got = c8223e8c | mcif_command = 6 | tc_command = 6
# UVM_INFO rd_sequence.sv(26) @ 1600: uvm_test_top.e.a.seqr@@rd_seq [RD_SEQ] rst_n = 1 | cmd_n = 0 | RDnWR = 1 | Addr_in = a06a | Data_in_vld = 0 | Data_in = 0
# UVM_INFO driver.sv(46) @ 1600: uvm_test_top.e.a.d [DRV] DATA SENT FROM DRIVER CLASS : rst_n = 1 | cmd_n = 0 | RDnWR = 1 | Addr_in = a06a | Data_in_vld = 0 | Data_in = 0 DQ = z
#                 1610 Command is 6
#                 1620 Command is 2
#                 1630 Command is 7
#                 1640 Command is 7
#                 1650 Command is 7
# UVM_INFO monitor.sv(56) @ 1650: uvm_test_top.e.a.m [MON] DATA SENT rst_n:1 cmd_n:0 RDnWR:1 Addr_in:a06a Data_in_vld:0 Data_in:0 
#                 1660 Command is 7
#                 1670 Command is 7
#                 1680 Command is 4
# UVM_INFO monitor.sv(56) @ 1680: uvm_test_top.e.a.m [MON] DATA SENT rst_n:1 cmd_n:0 RDnWR:1 Addr_in:a06a Data_in_vld:0 Data_in:0 
#                 1690 Command is 0
#                 1700 Command is 1
#                 1710 Command is 7
# UVM_INFO monitor.sv(56) @ 1710: uvm_test_top.e.a.m [MON] DATA SENT rst_n:1 cmd_n:0 RDnWR:1 Addr_in:a06a Data_in_vld:0 Data_in:0 
#                 1720 Command is 7
#                 1730 Command is 7
#                 1740 Command is 7
# UVM_INFO monitor.sv(56) @ 1740: uvm_test_top.e.a.m [MON] DATA SENT rst_n:1 cmd_n:0 RDnWR:1 Addr_in:a06a Data_in_vld:0 Data_in:0 
#                 1750 Command is 7
#                 1760 Command is 2
#                 1770 Command is 6
# UVM_INFO monitor.sv(56) @ 1770: uvm_test_top.e.a.m [MON] DATA SENT rst_n:1 cmd_n:0 RDnWR:1 Addr_in:a06a Data_in_vld:0 Data_in:0 
#                 1780 Command is 6
#                 1790 Command is 6
#                 1800 Command is 2
#                 1810 Command is 6
#                 1820 Command is 6
#                 1830 Command is 6
# UVM_INFO monitor.sv(56) @ 1830: uvm_test_top.e.a.m [MON] DATA SENT rst_n:1 cmd_n:0 RDnWR:1 Addr_in:a06a Data_in_vld:0 Data_in:0 
#                 1840 Command is 2
#                 1850 Command is 6
#                 1860 Command is 6
# UVM_INFO monitor.sv(56) @ 1860: uvm_test_top.e.a.m [MON] DATA SENT rst_n:1 cmd_n:0 RDnWR:1 Addr_in:a06a Data_in_vld:0 Data_in:0 
#                 1870 Command is 6
#                 1880 Command is 2
#                 1890 Command is 6
# UVM_INFO monitor.sv(56) @ 1890: uvm_test_top.e.a.m [MON] DATA SENT rst_n:1 cmd_n:0 RDnWR:1 Addr_in:a06a Data_in_vld:0 Data_in:0 
# UVM_INFO scoreboard.sv(90) @ 1890: uvm_test_top.e.s [SBD_READ_RA] RA Success
# UVM_INFO scoreboard.sv(99) @ 1890: uvm_test_top.e.s [SBD_READ_CA] CA Success
# UVM_INFO scoreboard.sv(109) @ 1890: uvm_test_top.e.s [SBD_READ_CN] Csn Success
#                 1900 Command is 6
# UVM_INFO scoreboard.sv(121) @ 1900: uvm_test_top.e.s [SBD_READ_DO] Data out success had = 9633abb8 expected = 9633abb8 | got = 9633abb8 | mcif_command = 6 | tc_command = 6
# UVM_INFO rd_sequence.sv(26) @ 1900: uvm_test_top.e.a.seqr@@rd_seq [RD_SEQ] rst_n = 1 | cmd_n = 0 | RDnWR = 1 | Addr_in = 29ca | Data_in_vld = 0 | Data_in = 0
# UVM_INFO driver.sv(46) @ 1900: uvm_test_top.e.a.d [DRV] DATA SENT FROM DRIVER CLASS : rst_n = 1 | cmd_n = 0 | RDnWR = 1 | Addr_in = 29ca | Data_in_vld = 0 | Data_in = 0 DQ = z
#                 1910 Command is 6
#                 1920 Command is 2
#                 1930 Command is 7
#                 1940 Command is 7
#                 1950 Command is 7
# UVM_INFO monitor.sv(56) @ 1950: uvm_test_top.e.a.m [MON] DATA SENT rst_n:1 cmd_n:0 RDnWR:1 Addr_in:29ca Data_in_vld:0 Data_in:0 
#                 1960 Command is 7
#                 1970 Command is 7
#                 1980 Command is 4
# UVM_INFO monitor.sv(56) @ 1980: uvm_test_top.e.a.m [MON] DATA SENT rst_n:1 cmd_n:0 RDnWR:1 Addr_in:29ca Data_in_vld:0 Data_in:0 
#                 1990 Command is 0
#                 2000 Command is 1
#                 2010 Command is 7
# UVM_INFO monitor.sv(56) @ 2010: uvm_test_top.e.a.m [MON] DATA SENT rst_n:1 cmd_n:0 RDnWR:1 Addr_in:29ca Data_in_vld:0 Data_in:0 
#                 2020 Command is 7
#                 2030 Command is 7
#                 2040 Command is 7
# UVM_INFO monitor.sv(56) @ 2040: uvm_test_top.e.a.m [MON] DATA SENT rst_n:1 cmd_n:0 RDnWR:1 Addr_in:29ca Data_in_vld:0 Data_in:0 
#                 2050 Command is 7
#                 2060 Command is 2
#                 2070 Command is 6
# UVM_INFO monitor.sv(56) @ 2070: uvm_test_top.e.a.m [MON] DATA SENT rst_n:1 cmd_n:0 RDnWR:1 Addr_in:29ca Data_in_vld:0 Data_in:0 
#                 2080 Command is 6
#                 2090 Command is 6
#                 2100 Command is 2
#                 2110 Command is 6
#                 2120 Command is 6
#                 2130 Command is 6
# UVM_INFO monitor.sv(56) @ 2130: uvm_test_top.e.a.m [MON] DATA SENT rst_n:1 cmd_n:0 RDnWR:1 Addr_in:29ca Data_in_vld:0 Data_in:0 
#                 2140 Command is 2
#                 2150 Command is 6
#                 2160 Command is 6
# UVM_INFO monitor.sv(56) @ 2160: uvm_test_top.e.a.m [MON] DATA SENT rst_n:1 cmd_n:0 RDnWR:1 Addr_in:29ca Data_in_vld:0 Data_in:0 
#                 2170 Command is 6
#                 2180 Command is 2
#                 2190 Command is 6
# UVM_INFO monitor.sv(56) @ 2190: uvm_test_top.e.a.m [MON] DATA SENT rst_n:1 cmd_n:0 RDnWR:1 Addr_in:29ca Data_in_vld:0 Data_in:0 
