testrun/qrun.log
QuestaSim-64 qrun 2024.1 Utility 2024.02 Feb  1 2024
Start time: 13:35:07 on Apr 09,2025
qrun tb_top.sv 
QuestaSim-64 vlog 2024.1 Compiler 2024.02 Feb  1 2024
Start time: 13:35:07 on Apr 09,2025
vlog tb_top.sv -work ./work -statslog qrun.out/stats_log -writesessionid "+qrun.out/top_dus" -csession=incr -csessionid=7 
** Note: (vlog-2286) tb_top.sv(2): Using implicit +incdir+C:/questasim64_2024.1/uvm-1.1d/../verilog_src/uvm-1.1d/src from import uvm_pkg
-- Compiling package tb_top_sv_unit
-- Importing package mtiUvm.uvm_pkg (uvm-1.1d Built-in)
-- Importing package mem_ctrl_pkg
-- Compiling package mem_ctrl_pkg
-- Compiling module mem_ctrl
-- Compiling interface mem_ctrl_if
-- Compiling module tb_top

Top level modules:
	tb_top
End time: 13:35:08 on Apr 09,2025, Elapsed time: 0:00:01
Errors: 0, Warnings: 0
QuestaSim-64 vopt 2024.1 Compiler 2024.02 Feb  1 2024
Start time: 13:35:08 on Apr 09,2025
vopt -findtoplevels D:/UVM/UVM_MAIN_PROJECT/testrun/work+7+ -work ./work -statslog qrun.out/stats_log -csession=incr -o qrun_opt_1 -csessionid=30 

Top level modules:
	tb_top

Analyzing design...
-- Loading module tb_top
-- Loading package mtiUvm.questa_uvm_pkg
-- Loading interface mem_ctrl_if
-- Loading module mem_ctrl
Incremental compilation check found 2 design-units (out of 8) may be reused.
Optimizing 6 design-units (inlining 2/3 module instances):
-- Optimizing package mem_ctrl_pkg(fast)
-- Optimizing package tb_top_sv_unit(fast)
-- Inlining interface mem_ctrl_if(fast__2)
-- Inlining module mem_ctrl(fast)
-- Optimizing module tb_top(fast)
-- Optimizing interface mem_ctrl_if(fast)
Optimized design name is qrun_opt_1
End time: 13:35:09 on Apr 09,2025, Elapsed time: 0:00:01
Errors: 0, Warnings: 0
# vsim -lib ./work -c -do "run -all; quit -f" -statslog qrun.out/stats_log qrun_opt_1 -appendlog -l qrun.log -csession=incr -csessionid=9 
# Start time: 13:35:10 on Apr 09,2025
# //  Questa Sim-64
# //  Version 2024.1 win64 Feb  1 2024
# //
# // Unpublished work. Copyright 2024 Siemens
# //
# // This material contains trade secrets or otherwise confidential information
# // owned by Siemens Industry Software Inc. or its affiliates (collectively,
# // "SISW"), or its licensors. Access to and use of this information is strictly
# // limited as set forth in the Customer's applicable agreements with SISW.
# //
# // This material may not be copied, distributed, or otherwise disclosed outside
# // of the Customer's facilities without the express written permission of SISW,
# // and may not be used in any way not expressly authorized by SISW.
# //
# Loading sv_std.std
# Loading work.mem_ctrl_if(fast)
# Loading mtiUvm.uvm_pkg(fast)
# Loading work.mem_ctrl_pkg(fast)
# Loading work.tb_top_sv_unit(fast)
# Loading mtiUvm.questa_uvm_pkg(fast)
# Loading work.tb_top(fast)
# Loading C:/questasim64_2024.1/uvm-1.1d\win64\uvm_dpi.dll
# run -all
# ----------------------------------------------------------------
# UVM-1.1d
# (C) 2007-2013 Mentor Graphics Corporation
# (C) 2007-2013 Cadence Design Systems, Inc.
# (C) 2006-2013 Synopsys, Inc.
# (C) 2011-2013 Cypress Semiconductor Corp.
# ----------------------------------------------------------------
# 
#   ***********       IMPORTANT RELEASE NOTES         ************
# 
#   You are using a version of the UVM library that has been compiled
#   with `UVM_NO_DEPRECATED undefined.
#   See http://www.eda.org/svdb/view.php?id=3313 for more details.
# 
#   You are using a version of the UVM library that has been compiled
#   with `UVM_OBJECT_MUST_HAVE_CONSTRUCTOR undefined.
#   See http://www.eda.org/svdb/view.php?id=3770 for more details.
# 
#       (Specify +UVM_NO_RELNOTES to turn off this notice)
# 
# UVM_INFO verilog_src/questa_uvm_pkg-1.2/src/questa_uvm_pkg.sv(277) @ 0: reporter [Questa UVM] QUESTA_UVM-1.2.3
# UVM_INFO verilog_src/questa_uvm_pkg-1.2/src/questa_uvm_pkg.sv(278) @ 0: reporter [Questa UVM]  questa_uvm::init(+struct)
# UVM_INFO @ 0: reporter [RNTST] Running test test...
# UVM_INFO wr_sequence.sv(22) @ 0: uvm_test_top.e.a.seqr@@wr_seq [wr_sequence] rst_n = 1 | cmd_n = 0 | RDnWR = 0 | Addr_in = c7e0 | Data_in_vld = 1 | Data_in = 18573867
# UVM_INFO driver.sv(46) @ 0: uvm_test_top.e.a.d [DRV] DATA SENT FROM DRIVER CLASS : rst_n = 1 | cmd_n = 0 | RDnWR = 0 | Addr_in = c7e0 | Data_in_vld = 1 | Data_in = 18573867 DQ = x
# UVM_INFO monitor.sv(53) @ 30: uvm_test_top.e.a.m [MON] DATA SENT rst_n:1 cmd_n:0 RDnWR:0 Addr_in:c7e0 Data_in_vld:1 Data_in:18573867 
# UVM_INFO scoreboard.sv(63) @ 30: uvm_test_top.e.s [SBD] WRITE: Addr = c7e0, Data = 18573867
# UVM_INFO monitor.sv(53) @ 60: uvm_test_top.e.a.m [MON] DATA SENT rst_n:1 cmd_n:0 RDnWR:0 Addr_in:c7e0 Data_in_vld:1 Data_in:18573867 
# UVM_INFO scoreboard.sv(73) @ 60: uvm_test_top.e.s [SBD] WRITE already done
# UVM_INFO monitor.sv(53) @ 90: uvm_test_top.e.a.m [MON] DATA SENT rst_n:1 cmd_n:0 RDnWR:0 Addr_in:c7e0 Data_in_vld:1 Data_in:18573867 
# UVM_INFO scoreboard.sv(73) @ 90: uvm_test_top.e.s [SBD] WRITE already done
# UVM_INFO monitor.sv(53) @ 120: uvm_test_top.e.a.m [MON] DATA SENT rst_n:1 cmd_n:0 RDnWR:0 Addr_in:c7e0 Data_in_vld:1 Data_in:18573867 
# UVM_INFO scoreboard.sv(73) @ 120: uvm_test_top.e.s [SBD] WRITE already done
# UVM_INFO wr_sequence.sv(22) @ 120: uvm_test_top.e.a.seqr@@wr_seq [wr_sequence] rst_n = 1 | cmd_n = 0 | RDnWR = 0 | Addr_in = a06a | Data_in_vld = 1 | Data_in = 9633abb8
# UVM_INFO driver.sv(46) @ 120: uvm_test_top.e.a.d [DRV] DATA SENT FROM DRIVER CLASS : rst_n = 1 | cmd_n = 0 | RDnWR = 0 | Addr_in = a06a | Data_in_vld = 1 | Data_in = 9633abb8 DQ = 18573867
# UVM_INFO monitor.sv(53) @ 150: uvm_test_top.e.a.m [MON] DATA SENT rst_n:1 cmd_n:0 RDnWR:0 Addr_in:a06a Data_in_vld:1 Data_in:9633abb8 
# UVM_INFO scoreboard.sv(63) @ 150: uvm_test_top.e.s [SBD] WRITE: Addr = a06a, Data = 9633abb8
# UVM_INFO monitor.sv(53) @ 180: uvm_test_top.e.a.m [MON] DATA SENT rst_n:1 cmd_n:0 RDnWR:0 Addr_in:a06a Data_in_vld:1 Data_in:9633abb8 
# UVM_INFO scoreboard.sv(73) @ 180: uvm_test_top.e.s [SBD] WRITE already done
# UVM_INFO monitor.sv(53) @ 210: uvm_test_top.e.a.m [MON] DATA SENT rst_n:1 cmd_n:0 RDnWR:0 Addr_in:a06a Data_in_vld:1 Data_in:9633abb8 
# UVM_INFO scoreboard.sv(73) @ 210: uvm_test_top.e.s [SBD] WRITE already done
# UVM_INFO monitor.sv(53) @ 240: uvm_test_top.e.a.m [MON] DATA SENT rst_n:1 cmd_n:0 RDnWR:0 Addr_in:a06a Data_in_vld:1 Data_in:9633abb8 
# UVM_INFO scoreboard.sv(73) @ 240: uvm_test_top.e.s [SBD] WRITE already done
# UVM_INFO wr_sequence.sv(22) @ 240: uvm_test_top.e.a.seqr@@wr_seq [wr_sequence] rst_n = 1 | cmd_n = 0 | RDnWR = 0 | Addr_in = 29ca | Data_in_vld = 1 | Data_in = c8223e8c
# UVM_INFO driver.sv(46) @ 240: uvm_test_top.e.a.d [DRV] DATA SENT FROM DRIVER CLASS : rst_n = 1 | cmd_n = 0 | RDnWR = 0 | Addr_in = 29ca | Data_in_vld = 1 | Data_in = c8223e8c DQ = 9633abb8
# UVM_INFO monitor.sv(53) @ 270: uvm_test_top.e.a.m [MON] DATA SENT rst_n:1 cmd_n:0 RDnWR:0 Addr_in:29ca Data_in_vld:1 Data_in:c8223e8c 
# UVM_INFO scoreboard.sv(63) @ 270: uvm_test_top.e.s [SBD] WRITE: Addr = 29ca, Data = c8223e8c
# UVM_INFO monitor.sv(53) @ 300: uvm_test_top.e.a.m [MON] DATA SENT rst_n:1 cmd_n:0 RDnWR:0 Addr_in:29ca Data_in_vld:1 Data_in:c8223e8c 
# UVM_INFO scoreboard.sv(73) @ 300: uvm_test_top.e.s [SBD] WRITE already done
# UVM_INFO monitor.sv(53) @ 330: uvm_test_top.e.a.m [MON] DATA SENT rst_n:1 cmd_n:0 RDnWR:0 Addr_in:29ca Data_in_vld:1 Data_in:c8223e8c 
# UVM_INFO scoreboard.sv(73) @ 330: uvm_test_top.e.s [SBD] WRITE already done
# UVM_INFO monitor.sv(53) @ 360: uvm_test_top.e.a.m [MON] DATA SENT rst_n:1 cmd_n:0 RDnWR:0 Addr_in:29ca Data_in_vld:1 Data_in:c8223e8c 
# UVM_INFO scoreboard.sv(73) @ 360: uvm_test_top.e.s [SBD] WRITE already done
# UVM_INFO wr_sequence.sv(22) @ 360: uvm_test_top.e.a.seqr@@wr_seq [wr_sequence] rst_n = 1 | cmd_n = 0 | RDnWR = 0 | Addr_in = d67f | Data_in_vld = 1 | Data_in = 50d14e4d
# UVM_INFO driver.sv(46) @ 360: uvm_test_top.e.a.d [DRV] DATA SENT FROM DRIVER CLASS : rst_n = 1 | cmd_n = 0 | RDnWR = 0 | Addr_in = d67f | Data_in_vld = 1 | Data_in = 50d14e4d DQ = c8223e8c
# UVM_INFO monitor.sv(53) @ 390: uvm_test_top.e.a.m [MON] DATA SENT rst_n:1 cmd_n:0 RDnWR:0 Addr_in:d67f Data_in_vld:1 Data_in:50d14e4d 
# UVM_INFO scoreboard.sv(63) @ 390: uvm_test_top.e.s [SBD] WRITE: Addr = d67f, Data = 50d14e4d
# UVM_INFO monitor.sv(53) @ 420: uvm_test_top.e.a.m [MON] DATA SENT rst_n:1 cmd_n:0 RDnWR:0 Addr_in:d67f Data_in_vld:1 Data_in:50d14e4d 
# UVM_INFO scoreboard.sv(73) @ 420: uvm_test_top.e.s [SBD] WRITE already done
# UVM_INFO monitor.sv(53) @ 450: uvm_test_top.e.a.m [MON] DATA SENT rst_n:1 cmd_n:0 RDnWR:0 Addr_in:d67f Data_in_vld:1 Data_in:50d14e4d 
# UVM_INFO scoreboard.sv(73) @ 450: uvm_test_top.e.s [SBD] WRITE already done
# UVM_INFO monitor.sv(53) @ 480: uvm_test_top.e.a.m [MON] DATA SENT rst_n:1 cmd_n:0 RDnWR:0 Addr_in:d67f Data_in_vld:1 Data_in:50d14e4d 
# UVM_INFO scoreboard.sv(73) @ 480: uvm_test_top.e.s [SBD] WRITE already done
# UVM_INFO wr_sequence.sv(22) @ 480: uvm_test_top.e.a.seqr@@wr_seq [wr_sequence] rst_n = 1 | cmd_n = 0 | RDnWR = 0 | Addr_in = c5ea | Data_in_vld = 1 | Data_in = 216c33a5
# UVM_INFO driver.sv(46) @ 480: uvm_test_top.e.a.d [DRV] DATA SENT FROM DRIVER CLASS : rst_n = 1 | cmd_n = 0 | RDnWR = 0 | Addr_in = c5ea | Data_in_vld = 1 | Data_in = 216c33a5 DQ = 50d14e4d
# UVM_INFO monitor.sv(53) @ 510: uvm_test_top.e.a.m [MON] DATA SENT rst_n:1 cmd_n:0 RDnWR:0 Addr_in:c5ea Data_in_vld:1 Data_in:216c33a5 
# UVM_INFO scoreboard.sv(63) @ 510: uvm_test_top.e.s [SBD] WRITE: Addr = c5ea, Data = 216c33a5
# UVM_INFO monitor.sv(53) @ 540: uvm_test_top.e.a.m [MON] DATA SENT rst_n:1 cmd_n:0 RDnWR:0 Addr_in:c5ea Data_in_vld:1 Data_in:216c33a5 
# UVM_INFO scoreboard.sv(73) @ 540: uvm_test_top.e.s [SBD] WRITE already done
# UVM_INFO monitor.sv(53) @ 570: uvm_test_top.e.a.m [MON] DATA SENT rst_n:1 cmd_n:0 RDnWR:0 Addr_in:c5ea Data_in_vld:1 Data_in:216c33a5 
# UVM_INFO scoreboard.sv(73) @ 570: uvm_test_top.e.s [SBD] WRITE already done
# UVM_INFO monitor.sv(53) @ 600: uvm_test_top.e.a.m [MON] DATA SENT rst_n:1 cmd_n:0 RDnWR:0 Addr_in:c5ea Data_in_vld:1 Data_in:216c33a5 
# UVM_INFO scoreboard.sv(73) @ 600: uvm_test_top.e.s [SBD] WRITE already done
# UVM_INFO rd_sequence.sv(26) @ 600: uvm_test_top.e.a.seqr@@rd_seq [RD_SEQ] rst_n = 1 | cmd_n = 0 | RDnWR = 1 | Addr_in = a06a | Data_in_vld = 0 | Data_in = 0
# UVM_INFO driver.sv(46) @ 600: uvm_test_top.e.a.d [DRV] DATA SENT FROM DRIVER CLASS : rst_n = 1 | cmd_n = 0 | RDnWR = 1 | Addr_in = a06a | Data_in_vld = 0 | Data_in = 0 DQ = 216c33a5
# UVM_INFO monitor.sv(53) @ 630: uvm_test_top.e.a.m [MON] DATA SENT rst_n:1 cmd_n:0 RDnWR:1 Addr_in:a06a Data_in_vld:0 Data_in:0 
# UVM_INFO monitor.sv(53) @ 660: uvm_test_top.e.a.m [MON] DATA SENT rst_n:1 cmd_n:0 RDnWR:1 Addr_in:a06a Data_in_vld:0 Data_in:0 
# UVM_INFO monitor.sv(53) @ 690: uvm_test_top.e.a.m [MON] DATA SENT rst_n:1 cmd_n:0 RDnWR:1 Addr_in:a06a Data_in_vld:0 Data_in:0 
# UVM_INFO monitor.sv(53) @ 720: uvm_test_top.e.a.m [MON] DATA SENT rst_n:1 cmd_n:0 RDnWR:1 Addr_in:a06a Data_in_vld:0 Data_in:0 
# UVM_INFO monitor.sv(53) @ 750: uvm_test_top.e.a.m [MON] DATA SENT rst_n:1 cmd_n:0 RDnWR:1 Addr_in:a06a Data_in_vld:0 Data_in:0 
# UVM_INFO monitor.sv(53) @ 780: uvm_test_top.e.a.m [MON] DATA SENT rst_n:1 cmd_n:0 RDnWR:1 Addr_in:a06a Data_in_vld:0 Data_in:0 
# UVM_INFO monitor.sv(53) @ 810: uvm_test_top.e.a.m [MON] DATA SENT rst_n:1 cmd_n:0 RDnWR:1 Addr_in:a06a Data_in_vld:0 Data_in:0 
# UVM_INFO monitor.sv(53) @ 840: uvm_test_top.e.a.m [MON] DATA SENT rst_n:1 cmd_n:0 RDnWR:1 Addr_in:a06a Data_in_vld:0 Data_in:0 
# UVM_INFO scoreboard.sv(90) @ 840: uvm_test_top.e.s [SBD_READ_RA] RA Success
# UVM_INFO scoreboard.sv(99) @ 840: uvm_test_top.e.s [SBD_READ_CA] CA Success
# UVM_INFO scoreboard.sv(109) @ 840: uvm_test_top.e.s [SBD_READ_CN] Csn Success
# UVM_INFO scoreboard.sv(121) @ 850: uvm_test_top.e.s [SBD_READ_DO] Data out success had = 9633abb8 expected = 9633abb8 | got = 9633abb8 | mcif_command = 0 | tc_command = 0
# UVM_INFO rd_sequence.sv(26) @ 850: uvm_test_top.e.a.seqr@@rd_seq [RD_SEQ] rst_n = 1 | cmd_n = 0 | RDnWR = 1 | Addr_in = c5ea | Data_in_vld = 0 | Data_in = 0
# UVM_INFO driver.sv(46) @ 850: uvm_test_top.e.a.d [DRV] DATA SENT FROM DRIVER CLASS : rst_n = 1 | cmd_n = 0 | RDnWR = 1 | Addr_in = c5ea | Data_in_vld = 0 | Data_in = 0 DQ = z
# UVM_INFO monitor.sv(53) @ 900: uvm_test_top.e.a.m [MON] DATA SENT rst_n:1 cmd_n:0 RDnWR:1 Addr_in:c5ea Data_in_vld:0 Data_in:0 
# UVM_INFO monitor.sv(53) @ 930: uvm_test_top.e.a.m [MON] DATA SENT rst_n:1 cmd_n:0 RDnWR:1 Addr_in:c5ea Data_in_vld:0 Data_in:0 
# UVM_INFO monitor.sv(53) @ 960: uvm_test_top.e.a.m [MON] DATA SENT rst_n:1 cmd_n:0 RDnWR:1 Addr_in:c5ea Data_in_vld:0 Data_in:0 
# UVM_INFO monitor.sv(53) @ 990: uvm_test_top.e.a.m [MON] DATA SENT rst_n:1 cmd_n:0 RDnWR:1 Addr_in:c5ea Data_in_vld:0 Data_in:0 
# UVM_INFO monitor.sv(53) @ 1050: uvm_test_top.e.a.m [MON] DATA SENT rst_n:1 cmd_n:0 RDnWR:1 Addr_in:c5ea Data_in_vld:0 Data_in:0 
# UVM_INFO monitor.sv(53) @ 1080: uvm_test_top.e.a.m [MON] DATA SENT rst_n:1 cmd_n:0 RDnWR:1 Addr_in:c5ea Data_in_vld:0 Data_in:0 
# UVM_INFO monitor.sv(53) @ 1110: uvm_test_top.e.a.m [MON] DATA SENT rst_n:1 cmd_n:0 RDnWR:1 Addr_in:c5ea Data_in_vld:0 Data_in:0 
# UVM_INFO scoreboard.sv(90) @ 1110: uvm_test_top.e.s [SBD_READ_RA] RA Success
# UVM_INFO scoreboard.sv(99) @ 1110: uvm_test_top.e.s [SBD_READ_CA] CA Success
# UVM_INFO scoreboard.sv(109) @ 1110: uvm_test_top.e.s [SBD_READ_CN] Csn Success
# UVM_INFO scoreboard.sv(121) @ 1120: uvm_test_top.e.s [SBD_READ_DO] Data out success had = 216c33a5 expected = 216c33a5 | got = 216c33a5 | mcif_command = 0 | tc_command = 0
# UVM_INFO rd_sequence.sv(26) @ 1120: uvm_test_top.e.a.seqr@@rd_seq [RD_SEQ] rst_n = 1 | cmd_n = 0 | RDnWR = 1 | Addr_in = c5ea | Data_in_vld = 0 | Data_in = 0
# UVM_INFO driver.sv(46) @ 1120: uvm_test_top.e.a.d [DRV] DATA SENT FROM DRIVER CLASS : rst_n = 1 | cmd_n = 0 | RDnWR = 1 | Addr_in = c5ea | Data_in_vld = 0 | Data_in = 0 DQ = z
# UVM_INFO monitor.sv(53) @ 1170: uvm_test_top.e.a.m [MON] DATA SENT rst_n:1 cmd_n:0 RDnWR:1 Addr_in:c5ea Data_in_vld:0 Data_in:0 
# UVM_INFO monitor.sv(53) @ 1200: uvm_test_top.e.a.m [MON] DATA SENT rst_n:1 cmd_n:0 RDnWR:1 Addr_in:c5ea Data_in_vld:0 Data_in:0 
# UVM_INFO monitor.sv(53) @ 1230: uvm_test_top.e.a.m [MON] DATA SENT rst_n:1 cmd_n:0 RDnWR:1 Addr_in:c5ea Data_in_vld:0 Data_in:0 
# UVM_INFO scoreboard.sv(90) @ 1230: uvm_test_top.e.s [SBD_READ_RA] RA Success
# UVM_INFO scoreboard.sv(99) @ 1230: uvm_test_top.e.s [SBD_READ_CA] CA Success
# UVM_INFO scoreboard.sv(109) @ 1230: uvm_test_top.e.s [SBD_READ_CN] Csn Success
# UVM_INFO scoreboard.sv(121) @ 1240: uvm_test_top.e.s [SBD_READ_DO] Data out success had = 216c33a5 expected = 216c33a5 | got = 216c33a5 | mcif_command = 0 | tc_command = 0
# UVM_INFO rd_sequence.sv(26) @ 1240: uvm_test_top.e.a.seqr@@rd_seq [RD_SEQ] rst_n = 1 | cmd_n = 0 | RDnWR = 1 | Addr_in = 29ca | Data_in_vld = 0 | Data_in = 0
# UVM_INFO driver.sv(46) @ 1240: uvm_test_top.e.a.d [DRV] DATA SENT FROM DRIVER CLASS : rst_n = 1 | cmd_n = 0 | RDnWR = 1 | Addr_in = 29ca | Data_in_vld = 0 | Data_in = 0 DQ = z
# UVM_INFO monitor.sv(53) @ 1290: uvm_test_top.e.a.m [MON] DATA SENT rst_n:1 cmd_n:0 RDnWR:1 Addr_in:29ca Data_in_vld:0 Data_in:0 
# UVM_INFO monitor.sv(53) @ 1320: uvm_test_top.e.a.m [MON] DATA SENT rst_n:1 cmd_n:0 RDnWR:1 Addr_in:29ca Data_in_vld:0 Data_in:0 
# UVM_INFO monitor.sv(53) @ 1350: uvm_test_top.e.a.m [MON] DATA SENT rst_n:1 cmd_n:0 RDnWR:1 Addr_in:29ca Data_in_vld:0 Data_in:0 
# UVM_INFO monitor.sv(53) @ 1380: uvm_test_top.e.a.m [MON] DATA SENT rst_n:1 cmd_n:0 RDnWR:1 Addr_in:29ca Data_in_vld:0 Data_in:0 
# UVM_INFO monitor.sv(53) @ 1440: uvm_test_top.e.a.m [MON] DATA SENT rst_n:1 cmd_n:0 RDnWR:1 Addr_in:29ca Data_in_vld:0 Data_in:0 
# UVM_INFO monitor.sv(53) @ 1470: uvm_test_top.e.a.m [MON] DATA SENT rst_n:1 cmd_n:0 RDnWR:1 Addr_in:29ca Data_in_vld:0 Data_in:0 
# UVM_INFO monitor.sv(53) @ 1500: uvm_test_top.e.a.m [MON] DATA SENT rst_n:1 cmd_n:0 RDnWR:1 Addr_in:29ca Data_in_vld:0 Data_in:0 
# UVM_INFO scoreboard.sv(90) @ 1500: uvm_test_top.e.s [SBD_READ_RA] RA Success
# UVM_INFO scoreboard.sv(99) @ 1500: uvm_test_top.e.s [SBD_READ_CA] CA Success
# UVM_INFO scoreboard.sv(109) @ 1500: uvm_test_top.e.s [SBD_READ_CN] Csn Success
# UVM_INFO scoreboard.sv(121) @ 1510: uvm_test_top.e.s [SBD_READ_DO] Data out success had = c8223e8c expected = c8223e8c | got = c8223e8c | mcif_command = 0 | tc_command = 0
# UVM_INFO rd_sequence.sv(26) @ 1510: uvm_test_top.e.a.seqr@@rd_seq [RD_SEQ] rst_n = 1 | cmd_n = 0 | RDnWR = 1 | Addr_in = a06a | Data_in_vld = 0 | Data_in = 0
# UVM_INFO driver.sv(46) @ 1510: uvm_test_top.e.a.d [DRV] DATA SENT FROM DRIVER CLASS : rst_n = 1 | cmd_n = 0 | RDnWR = 1 | Addr_in = a06a | Data_in_vld = 0 | Data_in = 0 DQ = z
# UVM_INFO monitor.sv(53) @ 1560: uvm_test_top.e.a.m [MON] DATA SENT rst_n:1 cmd_n:0 RDnWR:1 Addr_in:a06a Data_in_vld:0 Data_in:0 
# UVM_INFO monitor.sv(53) @ 1590: uvm_test_top.e.a.m [MON] DATA SENT rst_n:1 cmd_n:0 RDnWR:1 Addr_in:a06a Data_in_vld:0 Data_in:0 
# UVM_INFO monitor.sv(53) @ 1620: uvm_test_top.e.a.m [MON] DATA SENT rst_n:1 cmd_n:0 RDnWR:1 Addr_in:a06a Data_in_vld:0 Data_in:0 
# UVM_INFO monitor.sv(53) @ 1650: uvm_test_top.e.a.m [MON] DATA SENT rst_n:1 cmd_n:0 RDnWR:1 Addr_in:a06a Data_in_vld:0 Data_in:0 
# UVM_INFO monitor.sv(53) @ 1710: uvm_test_top.e.a.m [MON] DATA SENT rst_n:1 cmd_n:0 RDnWR:1 Addr_in:a06a Data_in_vld:0 Data_in:0 
# UVM_INFO monitor.sv(53) @ 1740: uvm_test_top.e.a.m [MON] DATA SENT rst_n:1 cmd_n:0 RDnWR:1 Addr_in:a06a Data_in_vld:0 Data_in:0 
# UVM_INFO monitor.sv(53) @ 1770: uvm_test_top.e.a.m [MON] DATA SENT rst_n:1 cmd_n:0 RDnWR:1 Addr_in:a06a Data_in_vld:0 Data_in:0 
# UVM_INFO scoreboard.sv(90) @ 1770: uvm_test_top.e.s [SBD_READ_RA] RA Success
# UVM_INFO scoreboard.sv(99) @ 1770: uvm_test_top.e.s [SBD_READ_CA] CA Success
# UVM_INFO scoreboard.sv(109) @ 1770: uvm_test_top.e.s [SBD_READ_CN] Csn Success
# UVM_INFO scoreboard.sv(121) @ 1780: uvm_test_top.e.s [SBD_READ_DO] Data out success had = 9633abb8 expected = 9633abb8 | got = 9633abb8 | mcif_command = 0 | tc_command = 0
# UVM_INFO rd_sequence.sv(26) @ 1780: uvm_test_top.e.a.seqr@@rd_seq [RD_SEQ] rst_n = 1 | cmd_n = 0 | RDnWR = 1 | Addr_in = 29ca | Data_in_vld = 0 | Data_in = 0
# UVM_INFO driver.sv(46) @ 1780: uvm_test_top.e.a.d [DRV] DATA SENT FROM DRIVER CLASS : rst_n = 1 | cmd_n = 0 | RDnWR = 1 | Addr_in = 29ca | Data_in_vld = 0 | Data_in = 0 DQ = z
# UVM_INFO monitor.sv(53) @ 1830: uvm_test_top.e.a.m [MON] DATA SENT rst_n:1 cmd_n:0 RDnWR:1 Addr_in:29ca Data_in_vld:0 Data_in:0 
# UVM_INFO monitor.sv(53) @ 1860: uvm_test_top.e.a.m [MON] DATA SENT rst_n:1 cmd_n:0 RDnWR:1 Addr_in:29ca Data_in_vld:0 Data_in:0 
# UVM_INFO monitor.sv(53) @ 1890: uvm_test_top.e.a.m [MON] DATA SENT rst_n:1 cmd_n:0 RDnWR:1 Addr_in:29ca Data_in_vld:0 Data_in:0 
# UVM_INFO monitor.sv(53) @ 1920: uvm_test_top.e.a.m [MON] DATA SENT rst_n:1 cmd_n:0 RDnWR:1 Addr_in:29ca Data_in_vld:0 Data_in:0 
# UVM_INFO monitor.sv(53) @ 1980: uvm_test_top.e.a.m [MON] DATA SENT rst_n:1 cmd_n:0 RDnWR:1 Addr_in:29ca Data_in_vld:0 Data_in:0 
# UVM_INFO monitor.sv(53) @ 2010: uvm_test_top.e.a.m [MON] DATA SENT rst_n:1 cmd_n:0 RDnWR:1 Addr_in:29ca Data_in_vld:0 Data_in:0 
# UVM_INFO monitor.sv(53) @ 2040: uvm_test_top.e.a.m [MON] DATA SENT rst_n:1 cmd_n:0 RDnWR:1 Addr_in:29ca Data_in_vld:0 Data_in:0 
# UVM_INFO scoreboard.sv(90) @ 2040: uvm_test_top.e.s [SBD_READ_RA] RA Success
# UVM_INFO scoreboard.sv(99) @ 2040: uvm_test_top.e.s [SBD_READ_CA] CA Success
# UVM_INFO scoreboard.sv(109) @ 2040: uvm_test_top.e.s [SBD_READ_CN] Csn Success
# UVM_INFO scoreboard.sv(121) @ 2050: uvm_test_top.e.s [SBD_READ_DO] Data out success had = c8223e8c expected = c8223e8c | got = c8223e8c | mcif_command = 0 | tc_command = 0
# UVM_INFO rd_sequence.sv(26) @ 2050: uvm_test_top.e.a.seqr@@rd_seq [RD_SEQ] rst_n = 1 | cmd_n = 0 | RDnWR = 1 | Addr_in = d67f | Data_in_vld = 0 | Data_in = 0
# UVM_INFO driver.sv(46) @ 2050: uvm_test_top.e.a.d [DRV] DATA SENT FROM DRIVER CLASS : rst_n = 1 | cmd_n = 0 | RDnWR = 1 | Addr_in = d67f | Data_in_vld = 0 | Data_in = 0 DQ = z
# UVM_INFO monitor.sv(53) @ 2100: uvm_test_top.e.a.m [MON] DATA SENT rst_n:1 cmd_n:0 RDnWR:1 Addr_in:d67f Data_in_vld:0 Data_in:0 
# UVM_INFO monitor.sv(53) @ 2130: uvm_test_top.e.a.m [MON] DATA SENT rst_n:1 cmd_n:0 RDnWR:1 Addr_in:d67f Data_in_vld:0 Data_in:0 
# UVM_INFO monitor.sv(53) @ 2160: uvm_test_top.e.a.m [MON] DATA SENT rst_n:1 cmd_n:0 RDnWR:1 Addr_in:d67f Data_in_vld:0 Data_in:0 
# UVM_INFO monitor.sv(53) @ 2190: uvm_test_top.e.a.m [MON] DATA SENT rst_n:1 cmd_n:0 RDnWR:1 Addr_in:d67f Data_in_vld:0 Data_in:0 
# UVM_INFO monitor.sv(53) @ 2250: uvm_test_top.e.a.m [MON] DATA SENT rst_n:1 cmd_n:0 RDnWR:1 Addr_in:d67f Data_in_vld:0 Data_in:0 
# UVM_INFO monitor.sv(53) @ 2280: uvm_test_top.e.a.m [MON] DATA SENT rst_n:1 cmd_n:0 RDnWR:1 Addr_in:d67f Data_in_vld:0 Data_in:0 
# UVM_INFO monitor.sv(53) @ 2310: uvm_test_top.e.a.m [MON] DATA SENT rst_n:1 cmd_n:0 RDnWR:1 Addr_in:d67f Data_in_vld:0 Data_in:0 
# UVM_INFO scoreboard.sv(90) @ 2310: uvm_test_top.e.s [SBD_READ_RA] RA Success
# UVM_INFO scoreboard.sv(99) @ 2310: uvm_test_top.e.s [SBD_READ_CA] CA Success
# UVM_INFO scoreboard.sv(109) @ 2310: uvm_test_top.e.s [SBD_READ_CN] Csn Success
# UVM_INFO scoreboard.sv(121) @ 2320: uvm_test_top.e.s [SBD_READ_DO] Data out success had = 50d14e4d expected = 50d14e4d | got = 50d14e4d | mcif_command = 0 | tc_command = 0
# UVM_INFO wr_invld_sequence.sv(18) @ 2320: uvm_test_top.e.a.seqr@@wr_invld_seq [WR_INVLD_SEQ] rst_n = 0 | cmd_n = 0 | RDnWR = 0 | Addr_in = b1a7 | Data_in_vld = 0 | Data_in = 8a6843a6
# UVM_INFO driver.sv(46) @ 2320: uvm_test_top.e.a.d [DRV] DATA SENT FROM DRIVER CLASS : rst_n = 1 | cmd_n = 1 | RDnWR = 0 | Addr_in = b1a7 | Data_in_vld = 0 | Data_in = 8a6843a6 DQ = z
# UVM_INFO monitor.sv(53) @ 2340: uvm_test_top.e.a.m [MON] DATA SENT rst_n:1 cmd_n:1 RDnWR:0 Addr_in:b1a7 Data_in_vld:0 Data_in:8a6843a6 
# UVM_INFO scoreboard.sv(82) @ 2340: uvm_test_top.e.s [SBD] cmd_n is 1 or data_in is not vld, operation not performed
# UVM_INFO monitor.sv(53) @ 2370: uvm_test_top.e.a.m [MON] DATA SENT rst_n:1 cmd_n:1 RDnWR:0 Addr_in:b1a7 Data_in_vld:0 Data_in:8a6843a6 
# UVM_INFO scoreboard.sv(82) @ 2370: uvm_test_top.e.s [SBD] cmd_n is 1 or data_in is not vld, operation not performed
# UVM_INFO monitor.sv(53) @ 2400: uvm_test_top.e.a.m [MON] DATA SENT rst_n:1 cmd_n:1 RDnWR:0 Addr_in:b1a7 Data_in_vld:0 Data_in:8a6843a6 
# UVM_INFO scoreboard.sv(82) @ 2400: uvm_test_top.e.s [SBD] cmd_n is 1 or data_in is not vld, operation not performed
